username,givenname,surname,password,email
Torrence.Simkins,Torrence,Simkins,MnCRzK87KNAr,tsimkins0@businessweek.com
Lexi.Kowalski,Lexi,Kowalski,MnCRzK87KNAr,lkowalski1@yandex.ru
Myrah.Vidloc,Myrah,Vidloc,MnCRzK87KNAr,mvidloc2@ocn.ne.jp
Inez.Fosbraey,Inez,Fosbraey,MnCRzK87KNAr,ifosbraey3@ameblo.jp
Spense.Courcey,Spense,Courcey,MnCRzK87KNAr,scourcey4@si.edu
Phebe.Kingcott,Phebe,Kingcott,MnCRzK87KNAr,pkingcott5@w3.org
Amye.Bjorkan,Amye,Bjorkan,MnCRzK87KNAr,abjorkan6@columbia.edu
Roanne.McCaskell,Roanne,McCaskell,MnCRzK87KNAr,rmccaskell7@bloomberg.com
Kakalina.Tookey,Kakalina,Tookey,MnCRzK87KNAr,ktookey8@reference.com
Jerry.Cowlin,Jerry,Cowlin,MnCRzK87KNAr,jcowlin9@1und1.de
Georgetta.Bernardotti,Georgetta,Bernardotti,MnCRzK87KNAr,gbernardottia@oaic.gov.au
Giacobo.Campanelli,Giacobo,Campanelli,MnCRzK87KNAr,gcampanellib@odnoklassniki.ru
Gabbey.Osmond,Gabbey,Osmond,MnCRzK87KNAr,gosmondc@google.ru
Worthington.Zuker,Worthington,Zuker,MnCRzK87KNAr,wzukerd@163.com
Pace.Zettoi,Pace,Zettoi,MnCRzK87KNAr,pzettoie@last.fm
Leena.Habbal,Leena,Habbal,MnCRzK87KNAr,lhabbalf@nifty.com
Worden.Jorczyk,Worden,Jorczyk,MnCRzK87KNAr,wjorczykg@wordpress.com
Breanne.Keam,Breanne,Keam,MnCRzK87KNAr,bkeamh@mozilla.com
Claus.Simak,Claus,Simak,MnCRzK87KNAr,csimaki@sogou.com
Nedi.Howroyd,Nedi,Howroyd,MnCRzK87KNAr,nhowroydj@gravatar.com
Trista.Godding,Trista,Godding,MnCRzK87KNAr,tgoddingk@elpais.com
Kameko.Durrant,Kameko,Durrant,MnCRzK87KNAr,kdurrantl@sakura.ne.jp
Siffre.Chatfield,Siffre,Chatfield,MnCRzK87KNAr,schatfieldm@geocities.jp
Wildon.Stovold,Wildon,Stovold,MnCRzK87KNAr,wstovoldn@parallels.com
Lindy.Placidi,Lindy,Placidi,MnCRzK87KNAr,lplacidio@yelp.com
Eveline.Gales,Eveline,Gales,MnCRzK87KNAr,egalesp@netvibes.com
Joyce.Gotts,Joyce,Gotts,MnCRzK87KNAr,jgottsq@barnesandnoble.com
Shelley.Kimmerling,Shelley,Kimmerling,MnCRzK87KNAr,skimmerlingr@gizmodo.com
Tamarra.Helliwell,Tamarra,Helliwell,MnCRzK87KNAr,thelliwells@mtv.com
Shani.Pykett,Shani,Pykett,MnCRzK87KNAr,spykettt@chron.com
Cherey.Neiland,Cherey,Neiland,MnCRzK87KNAr,cneilandu@abc.net.au
Chevalier.Ciobutaru,Chevalier,Ciobutaru,MnCRzK87KNAr,cciobutaruv@g.co
Atlante.Dranfield,Atlante,Dranfield,MnCRzK87KNAr,adranfieldw@github.com
Celina.Appleby,Celina,Appleby,MnCRzK87KNAr,capplebyx@g.co
Jori.Thornthwaite,Jori,Thornthwaite,MnCRzK87KNAr,jthornthwaitey@ucoz.com
Laetitia.Pepin,Laetitia,Pepin,MnCRzK87KNAr,lpepinz@amazonaws.com
Effie.Alyukin,Effie,Alyukin,MnCRzK87KNAr,ealyukin10@google.co.jp
Agretha.Beggs,Agretha,Beggs,MnCRzK87KNAr,abeggs11@bizjournals.com
Deloria.Brind,Deloria,Brind,MnCRzK87KNAr,dbrind12@nytimes.com
Shannon.Robbey,Shannon,Robbey,MnCRzK87KNAr,srobbey13@ftc.gov
Garik.Barwell,Garik,Barwell,MnCRzK87KNAr,gbarwell14@photobucket.com
Helena.Corradeschi,Helena,Corradeschi,MnCRzK87KNAr,hcorradeschi15@forbes.com
Dedie.Pratton,Dedie,Pratton,MnCRzK87KNAr,dpratton16@nature.com
Nat.Lucien,Nat,Lucien,MnCRzK87KNAr,nlucien17@buzzfeed.com
Lea.Eltone,Lea,Eltone,MnCRzK87KNAr,leltone18@ox.ac.uk
Oralle.Hearty,Oralle,Hearty,MnCRzK87KNAr,ohearty19@mozilla.org
Odelia.Welsby,Odelia,Welsby,MnCRzK87KNAr,owelsby1a@fema.gov
Doll.Booy,Doll,Booy,MnCRzK87KNAr,dbooy1b@newyorker.com
Heath.Bremmell,Heath,Bremmell,MnCRzK87KNAr,hbremmell1c@cnet.com
Hercule.De Benedictis,Hercule,De Benedictis,MnCRzK87KNAr,hdebenedictis1d@yale.edu
Alisander.Upshall,Alisander,Upshall,MnCRzK87KNAr,aupshall1e@hp.com
Gabrielle.Cashell,Gabrielle,Cashell,MnCRzK87KNAr,gcashell1f@google.pl
Jillian.Flowith,Jillian,Flowith,MnCRzK87KNAr,jflowith1g@barnesandnoble.com
Elwood.Sheavills,Elwood,Sheavills,MnCRzK87KNAr,esheavills1h@who.int
Lodovico.Water,Lodovico,Water,MnCRzK87KNAr,lwater1i@nps.gov
Gilly.Mattholie,Gilly,Mattholie,MnCRzK87KNAr,gmattholie1j@networksolutions.com
Araldo.Gahan,Araldo,Gahan,MnCRzK87KNAr,agahan1k@gov.uk
Mellisa.Beldham,Mellisa,Beldham,MnCRzK87KNAr,mbeldham1l@uiuc.edu
Darline.Monard,Darline,Monard,MnCRzK87KNAr,dmonard1m@bigcartel.com
Husain.De Caville,Husain,De Caville,MnCRzK87KNAr,hdecaville1n@dailymotion.com
Lorianne.Creboe,Lorianne,Creboe,MnCRzK87KNAr,lcreboe1o@apache.org
Jameson.Pestor,Jameson,Pestor,MnCRzK87KNAr,jpestor1p@apache.org
Sara.Sappy,Sara,Sappy,MnCRzK87KNAr,ssappy1q@unesco.org
Gaultiero.Shevlan,Gaultiero,Shevlan,MnCRzK87KNAr,gshevlan1r@ifeng.com
Petr.Fibbings,Petr,Fibbings,MnCRzK87KNAr,pfibbings1s@zimbio.com
Jud.Musson,Jud,Musson,MnCRzK87KNAr,jmusson1t@usa.gov
Sue.Veazey,Sue,Veazey,MnCRzK87KNAr,sveazey1u@sun.com
Florida.Main,Florida,Main,MnCRzK87KNAr,fmain1v@google.nl
Karen.Lightbourn,Karen,Lightbourn,MnCRzK87KNAr,klightbourn1w@guardian.co.uk
Jeddy.Krauze,Jeddy,Krauze,MnCRzK87KNAr,jkrauze1x@state.gov
Allistir.Rawcliffe,Allistir,Rawcliffe,MnCRzK87KNAr,arawcliffe1y@technorati.com
Massimiliano.Meenehan,Massimiliano,Meenehan,MnCRzK87KNAr,mmeenehan1z@rambler.ru
Brook.Marris,Brook,Marris,MnCRzK87KNAr,bmarris20@cloudflare.com
Dinah.Chaffyn,Dinah,Chaffyn,MnCRzK87KNAr,dchaffyn21@cnn.com
Yehudi.Rein,Yehudi,Rein,MnCRzK87KNAr,yrein22@fema.gov
Hermione.Tubble,Hermione,Tubble,MnCRzK87KNAr,htubble23@xinhuanet.com
Gael.O'Lennachain,Gael,O'Lennachain,MnCRzK87KNAr,golennachain24@gov.uk
Jordana.Antonijevic,Jordana,Antonijevic,MnCRzK87KNAr,jantonijevic25@arstechnica.com
Kimble.Tawn,Kimble,Tawn,MnCRzK87KNAr,ktawn26@google.com.au
Arv.Lane,Arv,Lane,MnCRzK87KNAr,alane27@theguardian.com
Bobbette.Chatelot,Bobbette,Chatelot,MnCRzK87KNAr,bchatelot28@bandcamp.com
Cristen.Pesterfield,Cristen,Pesterfield,MnCRzK87KNAr,cpesterfield29@t-online.de
Reggie.Kirkpatrick,Reggie,Kirkpatrick,MnCRzK87KNAr,rkirkpatrick2a@geocities.jp
Chaddie.Dallyn,Chaddie,Dallyn,MnCRzK87KNAr,cdallyn2b@unc.edu
Gipsy.Millin,Gipsy,Millin,MnCRzK87KNAr,gmillin2c@java.com
Vachel.Semerad,Vachel,Semerad,MnCRzK87KNAr,vsemerad2d@vistaprint.com
Christie.Matuszkiewicz,Christie,Matuszkiewicz,MnCRzK87KNAr,cmatuszkiewicz2e@wunderground.com
Alina.Odgaard,Alina,Odgaard,MnCRzK87KNAr,aodgaard2f@google.com.hk
Edythe.Soda,Edythe,Soda,MnCRzK87KNAr,esoda2g@soup.io
Terrance.Bysaker,Terrance,Bysaker,MnCRzK87KNAr,tbysaker2h@oakley.com
Alisander.McMains,Alisander,McMains,MnCRzK87KNAr,amcmains2i@upenn.edu
Jacky.Cribbott,Jacky,Cribbott,MnCRzK87KNAr,jcribbott2j@prnewswire.com
Bette-ann.Christie,Bette-ann,Christie,MnCRzK87KNAr,bchristie2k@webeden.co.uk
Bo.Roycraft,Bo,Roycraft,MnCRzK87KNAr,broycraft2l@home.pl
Aluin.Hollyer,Aluin,Hollyer,MnCRzK87KNAr,ahollyer2m@japanpost.jp
Meara.Snazle,Meara,Snazle,MnCRzK87KNAr,msnazle2n@mac.com
Jocelin.Melody,Jocelin,Melody,MnCRzK87KNAr,jmelody2o@taobao.com
Tera.Petrashkov,Tera,Petrashkov,MnCRzK87KNAr,tpetrashkov2p@hhs.gov
Ninette.Spear,Ninette,Spear,MnCRzK87KNAr,nspear2q@independent.co.uk
Yorker.Petcher,Yorker,Petcher,MnCRzK87KNAr,ypetcher2r@pcworld.com
Doti.Shadfourth,Doti,Shadfourth,MnCRzK87KNAr,dshadfourth2s@census.gov
Hermie.Jirousek,Hermie,Jirousek,MnCRzK87KNAr,hjirousek2t@usgs.gov
James.Isakson,James,Isakson,MnCRzK87KNAr,jisakson2u@dropbox.com
Katha.Ayliffe,Katha,Ayliffe,MnCRzK87KNAr,kayliffe2v@yellowbook.com
Shawn.Furmedge,Shawn,Furmedge,MnCRzK87KNAr,sfurmedge2w@google.com.hk
Nichole.Marple,Nichole,Marple,MnCRzK87KNAr,nmarple2x@dyndns.org
Hatty.Rozenzweig,Hatty,Rozenzweig,MnCRzK87KNAr,hrozenzweig2y@howstuffworks.com
Eartha.Hewins,Eartha,Hewins,MnCRzK87KNAr,ehewins2z@skype.com
Amalee.Cridlin,Amalee,Cridlin,MnCRzK87KNAr,acridlin30@google.co.jp
Frederica.Anderson,Frederica,Anderson,MnCRzK87KNAr,fanderson31@dmoz.org
Allister.Peschke,Allister,Peschke,MnCRzK87KNAr,apeschke32@google.co.jp
Geno.Gallardo,Geno,Gallardo,MnCRzK87KNAr,ggallardo33@weather.com
Errick.Oattes,Errick,Oattes,MnCRzK87KNAr,eoattes34@cbc.ca
Babs.McTavish,Babs,McTavish,MnCRzK87KNAr,bmctavish35@dropbox.com
Kippie.Lambourn,Kippie,Lambourn,MnCRzK87KNAr,klambourn36@uol.com.br
Colly.Stowte,Colly,Stowte,MnCRzK87KNAr,cstowte37@chicagotribune.com
Bald.Power,Bald,Power,MnCRzK87KNAr,bpower38@acquirethisname.com
Dalton.Avramovsky,Dalton,Avramovsky,MnCRzK87KNAr,davramovsky39@webs.com
Georges.McKague,Georges,McKague,MnCRzK87KNAr,gmckague3a@smugmug.com
Sher.Hughlock,Sher,Hughlock,MnCRzK87KNAr,shughlock3b@taobao.com
Malia.Huttley,Malia,Huttley,MnCRzK87KNAr,mhuttley3c@ed.gov
Lon.Levecque,Lon,Levecque,MnCRzK87KNAr,llevecque3d@answers.com
Sapphire.Holdworth,Sapphire,Holdworth,MnCRzK87KNAr,sholdworth3e@mapy.cz
Enid.Bart,Enid,Bart,MnCRzK87KNAr,ebart3f@oaic.gov.au
Ailina.Oswald,Ailina,Oswald,MnCRzK87KNAr,aoswald3g@wiley.com
Emlen.Dayne,Emlen,Dayne,MnCRzK87KNAr,edayne3h@princeton.edu
Floris.Mattersey,Floris,Mattersey,MnCRzK87KNAr,fmattersey3i@xinhuanet.com
Marabel.Runcieman,Marabel,Runcieman,MnCRzK87KNAr,mruncieman3j@sciencedirect.com
Lurleen.Belbin,Lurleen,Belbin,MnCRzK87KNAr,lbelbin3k@vkontakte.ru
Bertram.Cogan,Bertram,Cogan,MnCRzK87KNAr,bcogan3l@wsj.com
Carl.LLelweln,Carl,LLelweln,MnCRzK87KNAr,cllelweln3m@chicagotribune.com
Henderson.Keep,Henderson,Keep,MnCRzK87KNAr,hkeep3n@home.pl
Austen.Faull,Austen,Faull,MnCRzK87KNAr,afaull3o@mediafire.com
Karlotta.Syms,Karlotta,Syms,MnCRzK87KNAr,ksyms3p@ameblo.jp
Lita.Sadat,Lita,Sadat,MnCRzK87KNAr,lsadat3q@hubpages.com
Idalia.Varley,Idalia,Varley,MnCRzK87KNAr,ivarley3r@tinypic.com
Teodorico.Row,Teodorico,Row,MnCRzK87KNAr,trow3s@naver.com
Dunstan.Brandts,Dunstan,Brandts,MnCRzK87KNAr,dbrandts3t@furl.net
Carolus.Di Nisco,Carolus,Di Nisco,MnCRzK87KNAr,cdinisco3u@bing.com
Archy.Weller,Archy,Weller,MnCRzK87KNAr,aweller3v@telegraph.co.uk
Bronny.Bastick,Bronny,Bastick,MnCRzK87KNAr,bbastick3w@bing.com
Alisander.Jepps,Alisander,Jepps,MnCRzK87KNAr,ajepps3x@usatoday.com
Jacqui.Patinkin,Jacqui,Patinkin,MnCRzK87KNAr,jpatinkin3y@redcross.org
Gray.Shoubridge,Gray,Shoubridge,MnCRzK87KNAr,gshoubridge3z@wiley.com
Zabrina.Bridgeman,Zabrina,Bridgeman,MnCRzK87KNAr,zbridgeman40@a8.net
Baryram.Gingold,Baryram,Gingold,MnCRzK87KNAr,bgingold41@wunderground.com
Caril.Lemmon,Caril,Lemmon,MnCRzK87KNAr,clemmon42@tripadvisor.com
Cecily.Durtnall,Cecily,Durtnall,MnCRzK87KNAr,cdurtnall43@va.gov
Auberon.Greasty,Auberon,Greasty,MnCRzK87KNAr,agreasty44@engadget.com
Lauree.Chapellow,Lauree,Chapellow,MnCRzK87KNAr,lchapellow45@elegantthemes.com
Martynne.Szepe,Martynne,Szepe,MnCRzK87KNAr,mszepe46@microsoft.com
Adlai.Hastwell,Adlai,Hastwell,MnCRzK87KNAr,ahastwell47@hostgator.com
Johannes.Mazonowicz,Johannes,Mazonowicz,MnCRzK87KNAr,jmazonowicz48@weebly.com
Peadar.Roubeix,Peadar,Roubeix,MnCRzK87KNAr,proubeix49@amazon.com
Hakeem.Hugonnet,Hakeem,Hugonnet,MnCRzK87KNAr,hhugonnet4a@mac.com
Ann.Windus,Ann,Windus,MnCRzK87KNAr,awindus4b@salon.com
Frasquito.Snoxall,Frasquito,Snoxall,MnCRzK87KNAr,fsnoxall4c@ow.ly
Brittany.Hellyer,Brittany,Hellyer,MnCRzK87KNAr,bhellyer4d@forbes.com
Lindsey.Gerry,Lindsey,Gerry,MnCRzK87KNAr,lgerry4e@vkontakte.ru
Aliza.Blodgett,Aliza,Blodgett,MnCRzK87KNAr,ablodgett4f@un.org
Benny.Mashal,Benny,Mashal,MnCRzK87KNAr,bmashal4g@goo.ne.jp
Edmund.Eldershaw,Edmund,Eldershaw,MnCRzK87KNAr,eeldershaw4h@instagram.com
Jacquette.Gidley,Jacquette,Gidley,MnCRzK87KNAr,jgidley4i@va.gov
Farlee.Blazdell,Farlee,Blazdell,MnCRzK87KNAr,fblazdell4j@kickstarter.com
Lida.Lynch,Lida,Lynch,MnCRzK87KNAr,llynch4k@reuters.com
Erick.Bole,Erick,Bole,MnCRzK87KNAr,ebole4l@msn.com
Laurie.Greensitt,Laurie,Greensitt,MnCRzK87KNAr,lgreensitt4m@unesco.org
Carolin.Dalinder,Carolin,Dalinder,MnCRzK87KNAr,cdalinder4n@unblog.fr
Darn.Wye,Darn,Wye,MnCRzK87KNAr,dwye4o@sfgate.com
Arel.Michiel,Arel,Michiel,MnCRzK87KNAr,amichiel4p@apple.com
Darcy.Sothcott,Darcy,Sothcott,MnCRzK87KNAr,dsothcott4q@theguardian.com
Wolfgang.Oloman,Wolfgang,Oloman,MnCRzK87KNAr,woloman4r@wikipedia.org
Eugenio.MacCaghan,Eugenio,MacCaghan,MnCRzK87KNAr,emaccaghan4s@php.net
Finley.Fernando,Finley,Fernando,MnCRzK87KNAr,ffernando4t@sohu.com
Marsha.Stubbes,Marsha,Stubbes,MnCRzK87KNAr,mstubbes4u@etsy.com
Bethanne.Andreaccio,Bethanne,Andreaccio,MnCRzK87KNAr,bandreaccio4v@addthis.com
Chariot.Marl,Chariot,Marl,MnCRzK87KNAr,cmarl4w@homestead.com
Ashli.Doreward,Ashli,Doreward,MnCRzK87KNAr,adoreward4x@webeden.co.uk
Salvador.Shirley,Salvador,Shirley,MnCRzK87KNAr,sshirley4y@geocities.com
Frances.Reasce,Frances,Reasce,MnCRzK87KNAr,freasce4z@gmpg.org
Brittney.Dows,Brittney,Dows,MnCRzK87KNAr,bdows50@globo.com
Dorris.Cromwell,Dorris,Cromwell,MnCRzK87KNAr,dcromwell51@plala.or.jp
Josey.Linton,Josey,Linton,MnCRzK87KNAr,jlinton52@theglobeandmail.com
Fraze.Fishpool,Fraze,Fishpool,MnCRzK87KNAr,ffishpool53@house.gov
Joyann.Jerrand,Joyann,Jerrand,MnCRzK87KNAr,jjerrand54@nsw.gov.au
Remy.Burstow,Remy,Burstow,MnCRzK87KNAr,rburstow55@comcast.net
Sianna.Drover,Sianna,Drover,MnCRzK87KNAr,sdrover56@cpanel.net
Hermine.Espada,Hermine,Espada,MnCRzK87KNAr,hespada57@yahoo.co.jp
Klemens.Wreford,Klemens,Wreford,MnCRzK87KNAr,kwreford58@ocn.ne.jp
Chastity.Kevis,Chastity,Kevis,MnCRzK87KNAr,ckevis59@salon.com
Alessandro.Mallan,Alessandro,Mallan,MnCRzK87KNAr,amallan5a@bandcamp.com
Lucinda.Rouzet,Lucinda,Rouzet,MnCRzK87KNAr,lrouzet5b@odnoklassniki.ru
Elie.Esland,Elie,Esland,MnCRzK87KNAr,eesland5c@unicef.org
Kerby.Inchcomb,Kerby,Inchcomb,MnCRzK87KNAr,kinchcomb5d@sogou.com
Shelbi.Maberley,Shelbi,Maberley,MnCRzK87KNAr,smaberley5e@ftc.gov
Martelle.Cosgreave,Martelle,Cosgreave,MnCRzK87KNAr,mcosgreave5f@youtube.com
Vivyan.Hazeldine,Vivyan,Hazeldine,MnCRzK87KNAr,vhazeldine5g@sogou.com
Yolande.Matisse,Yolande,Matisse,MnCRzK87KNAr,ymatisse5h@cpanel.net
Jen.McAulay,Jen,McAulay,MnCRzK87KNAr,jmcaulay5i@tinyurl.com
Constanta.Salman,Constanta,Salman,MnCRzK87KNAr,csalman5j@elegantthemes.com
Gabriel.Loade,Gabriel,Loade,MnCRzK87KNAr,gloade5k@sohu.com
Demetris.Andreia,Demetris,Andreia,MnCRzK87KNAr,dandreia5l@aol.com
Early.Greggersen,Early,Greggersen,MnCRzK87KNAr,egreggersen5m@cbsnews.com
Owen.Gilhoolie,Owen,Gilhoolie,MnCRzK87KNAr,ogilhoolie5n@home.pl
Tobias.Lodden,Tobias,Lodden,MnCRzK87KNAr,tlodden5o@businessinsider.com
Tonie.Willeson,Tonie,Willeson,MnCRzK87KNAr,twilleson5p@reverbnation.com
Janaya.Cudworth,Janaya,Cudworth,MnCRzK87KNAr,jcudworth5q@issuu.com
Aubrie.Ogborne,Aubrie,Ogborne,MnCRzK87KNAr,aogborne5r@imgur.com
Everard.Dossit,Everard,Dossit,MnCRzK87KNAr,edossit5s@nps.gov
Sybilla.McNamara,Sybilla,McNamara,MnCRzK87KNAr,smcnamara5t@harvard.edu
Melvin.Topham,Melvin,Topham,MnCRzK87KNAr,mtopham5u@independent.co.uk
Dennis.Stannering,Dennis,Stannering,MnCRzK87KNAr,dstannering5v@toplist.cz
Oswald.Pedrocco,Oswald,Pedrocco,MnCRzK87KNAr,opedrocco5w@archive.org
Rheba.Issakov,Rheba,Issakov,MnCRzK87KNAr,rissakov5x@psu.edu
Erin.Clymer,Erin,Clymer,MnCRzK87KNAr,eclymer5y@sun.com
Gerhardine.Pagitt,Gerhardine,Pagitt,MnCRzK87KNAr,gpagitt5z@tinyurl.com
Dinah.Newiss,Dinah,Newiss,MnCRzK87KNAr,dnewiss60@marriott.com
Max.Denisevich,Max,Denisevich,MnCRzK87KNAr,mdenisevich61@cbsnews.com
Karlie.Aidler,Karlie,Aidler,MnCRzK87KNAr,kaidler62@theglobeandmail.com
Lalo.Sprowell,Lalo,Sprowell,MnCRzK87KNAr,lsprowell63@home.pl
Donna.Hrishanok,Donna,Hrishanok,MnCRzK87KNAr,dhrishanok64@home.pl
Georgy.McClure,Georgy,McClure,MnCRzK87KNAr,gmcclure65@bloglines.com
Marlena.Ede,Marlena,Ede,MnCRzK87KNAr,mede66@dedecms.com
Rowe.Lawles,Rowe,Lawles,MnCRzK87KNAr,rlawles67@tripadvisor.com
Sara.Cashman,Sara,Cashman,MnCRzK87KNAr,scashman68@hud.gov
Coraline.Samwayes,Coraline,Samwayes,MnCRzK87KNAr,csamwayes69@unc.edu
Shell.Headington,Shell,Headington,MnCRzK87KNAr,sheadington6a@mediafire.com
Mikol.Shatford,Mikol,Shatford,MnCRzK87KNAr,mshatford6b@posterous.com
Axel.Scrancher,Axel,Scrancher,MnCRzK87KNAr,ascrancher6c@deliciousdays.com
Theodosia.Piell,Theodosia,Piell,MnCRzK87KNAr,tpiell6d@wikia.com
Chaddy.Fyrth,Chaddy,Fyrth,MnCRzK87KNAr,cfyrth6e@zdnet.com
Jared.Wagg,Jared,Wagg,MnCRzK87KNAr,jwagg6f@wisc.edu
Clark.Skirven,Clark,Skirven,MnCRzK87KNAr,cskirven6g@cornell.edu
Deane.Ondracek,Deane,Ondracek,MnCRzK87KNAr,dondracek6h@fda.gov
Jewell.Maryan,Jewell,Maryan,MnCRzK87KNAr,jmaryan6i@sfgate.com
Alexandros.Matignon,Alexandros,Matignon,MnCRzK87KNAr,amatignon6j@mozilla.com
Hyacinthie.Russan,Hyacinthie,Russan,MnCRzK87KNAr,hrussan6k@dagondesign.com
Albertine.Othen,Albertine,Othen,MnCRzK87KNAr,aothen6l@paypal.com
Vaclav.Baty,Vaclav,Baty,MnCRzK87KNAr,vbaty6m@sohu.com
Riki.Hawton,Riki,Hawton,MnCRzK87KNAr,rhawton6n@wufoo.com
Jo ann.Lorenzetti,Jo ann,Lorenzetti,MnCRzK87KNAr,jlorenzetti6o@digg.com
Bartholomeus.Glazyer,Bartholomeus,Glazyer,MnCRzK87KNAr,bglazyer6p@google.co.jp
Aindrea.Anear,Aindrea,Anear,MnCRzK87KNAr,aanear6q@dagondesign.com
Tremain.Stenson,Tremain,Stenson,MnCRzK87KNAr,tstenson6r@thetimes.co.uk
Rawley.Toft,Rawley,Toft,MnCRzK87KNAr,rtoft6s@marketwatch.com
Caresa.Coburn,Caresa,Coburn,MnCRzK87KNAr,ccoburn6t@state.tx.us
Clo.Darnbrough,Clo,Darnbrough,MnCRzK87KNAr,cdarnbrough6u@vk.com
Lotty.Skeldon,Lotty,Skeldon,MnCRzK87KNAr,lskeldon6v@vimeo.com
Zared.Hammor,Zared,Hammor,MnCRzK87KNAr,zhammor6w@mozilla.com
Bobby.Conkie,Bobby,Conkie,MnCRzK87KNAr,bconkie6x@deviantart.com
Mort.Gumn,Mort,Gumn,MnCRzK87KNAr,mgumn6y@fda.gov
Oralee.Baiyle,Oralee,Baiyle,MnCRzK87KNAr,obaiyle6z@moonfruit.com
Fielding.Odegaard,Fielding,Odegaard,MnCRzK87KNAr,fodegaard70@cdc.gov
Gizela.Doick,Gizela,Doick,MnCRzK87KNAr,gdoick71@about.me
Trumaine.Arnaudot,Trumaine,Arnaudot,MnCRzK87KNAr,tarnaudot72@nifty.com
Opal.Chantree,Opal,Chantree,MnCRzK87KNAr,ochantree73@howstuffworks.com
Tammy.Waby,Tammy,Waby,MnCRzK87KNAr,twaby74@list-manage.com
Any.Grene,Any,Grene,MnCRzK87KNAr,agrene75@csmonitor.com
Lillian.Epdell,Lillian,Epdell,MnCRzK87KNAr,lepdell76@csmonitor.com
Josh.Ivy,Josh,Ivy,MnCRzK87KNAr,jivy77@ning.com
Katerine.Wantling,Katerine,Wantling,MnCRzK87KNAr,kwantling78@technorati.com
Lorenza.Chieze,Lorenza,Chieze,MnCRzK87KNAr,lchieze79@com.com
Leah.Gerrit,Leah,Gerrit,MnCRzK87KNAr,lgerrit7a@home.pl
Donia.Hesser,Donia,Hesser,MnCRzK87KNAr,dhesser7b@rediff.com
Edin.Rashleigh,Edin,Rashleigh,MnCRzK87KNAr,erashleigh7c@1688.com
Hulda.Abramski,Hulda,Abramski,MnCRzK87KNAr,habramski7d@soundcloud.com
Dun.Orringe,Dun,Orringe,MnCRzK87KNAr,dorringe7e@netvibes.com
Valli.Cinnamond,Valli,Cinnamond,MnCRzK87KNAr,vcinnamond7f@ovh.net
Annmarie.Pluthero,Annmarie,Pluthero,MnCRzK87KNAr,apluthero7g@cam.ac.uk
Colin.Blackborow,Colin,Blackborow,MnCRzK87KNAr,cblackborow7h@is.gd
Armando.Fogel,Armando,Fogel,MnCRzK87KNAr,afogel7i@marketwatch.com
Salim.Bernardin,Salim,Bernardin,MnCRzK87KNAr,sbernardin7j@soup.io
Lilas.Myatt,Lilas,Myatt,MnCRzK87KNAr,lmyatt7k@parallels.com
Opalina.Hitzmann,Opalina,Hitzmann,MnCRzK87KNAr,ohitzmann7l@cyberchimps.com
Konstantin.Stanney,Konstantin,Stanney,MnCRzK87KNAr,kstanney7m@nymag.com
Ingunna.McGill,Ingunna,McGill,MnCRzK87KNAr,imcgill7n@latimes.com
Zacharias.Pinchen,Zacharias,Pinchen,MnCRzK87KNAr,zpinchen7o@theguardian.com
Jervis.Quincey,Jervis,Quincey,MnCRzK87KNAr,jquincey7p@hhs.gov
Norean.Wickstead,Norean,Wickstead,MnCRzK87KNAr,nwickstead7q@w3.org
Phaedra.Blowfelde,Phaedra,Blowfelde,MnCRzK87KNAr,pblowfelde7r@google.es
Cheri.Matuszinski,Cheri,Matuszinski,MnCRzK87KNAr,cmatuszinski7s@virginia.edu
Kristyn.Fairbank,Kristyn,Fairbank,MnCRzK87KNAr,kfairbank7t@whitehouse.gov
Othilie.Willox,Othilie,Willox,MnCRzK87KNAr,owillox7u@dagondesign.com
Sherwynd.Goldstein,Sherwynd,Goldstein,MnCRzK87KNAr,sgoldstein7v@independent.co.uk
Cal.Openshaw,Cal,Openshaw,MnCRzK87KNAr,copenshaw7w@army.mil
Brok.Demare,Brok,Demare,MnCRzK87KNAr,bdemare7x@dagondesign.com
Sisile.Dewdney,Sisile,Dewdney,MnCRzK87KNAr,sdewdney7y@weebly.com
Palm.Doerling,Palm,Doerling,MnCRzK87KNAr,pdoerling7z@huffingtonpost.com
Onofredo.Vickerman,Onofredo,Vickerman,MnCRzK87KNAr,ovickerman80@pagesperso-orange.fr
Phillie.Challin,Phillie,Challin,MnCRzK87KNAr,pchallin81@samsung.com
Donn.Gaiford,Donn,Gaiford,MnCRzK87KNAr,dgaiford82@businessinsider.com
Fleurette.Vallentin,Fleurette,Vallentin,MnCRzK87KNAr,fvallentin83@prweb.com
Jermain.Bolland,Jermain,Bolland,MnCRzK87KNAr,jbolland84@weibo.com
Katheryn.Wilby,Katheryn,Wilby,MnCRzK87KNAr,kwilby85@reuters.com
Anthea.O' Mullane,Anthea,O' Mullane,MnCRzK87KNAr,aomullane86@techcrunch.com
Leopold.Skinn,Leopold,Skinn,MnCRzK87KNAr,lskinn87@yandex.ru
Mary.Haselhurst,Mary,Haselhurst,MnCRzK87KNAr,mhaselhurst88@hhs.gov
Sianna.Ainslee,Sianna,Ainslee,MnCRzK87KNAr,sainslee89@squarespace.com
Giraldo.Hruska,Giraldo,Hruska,MnCRzK87KNAr,ghruska8a@tiny.cc
Sybyl.Hammon,Sybyl,Hammon,MnCRzK87KNAr,shammon8b@livejournal.com
Eadmund.Etherton,Eadmund,Etherton,MnCRzK87KNAr,eetherton8c@hatena.ne.jp
Haze.Babidge,Haze,Babidge,MnCRzK87KNAr,hbabidge8d@imageshack.us
Debor.Shurrocks,Debor,Shurrocks,MnCRzK87KNAr,dshurrocks8e@indiatimes.com
Warner.Guerrier,Warner,Guerrier,MnCRzK87KNAr,wguerrier8f@soundcloud.com
Ado.Syddon,Ado,Syddon,MnCRzK87KNAr,asyddon8g@alibaba.com
Chandal.Wanek,Chandal,Wanek,MnCRzK87KNAr,cwanek8h@omniture.com
Cornela.Lampard,Cornela,Lampard,MnCRzK87KNAr,clampard8i@weibo.com
Riva.Deakan,Riva,Deakan,MnCRzK87KNAr,rdeakan8j@cdc.gov
Burg.Sothern,Burg,Sothern,MnCRzK87KNAr,bsothern8k@acquirethisname.com
Devland.Minards,Devland,Minards,MnCRzK87KNAr,dminards8l@etsy.com
Kane.Caizley,Kane,Caizley,MnCRzK87KNAr,kcaizley8m@imageshack.us
Bernardina.Martt,Bernardina,Martt,MnCRzK87KNAr,bmartt8n@1688.com
Donall.Purves,Donall,Purves,MnCRzK87KNAr,dpurves8o@issuu.com
Matthaeus.Truce,Matthaeus,Truce,MnCRzK87KNAr,mtruce8p@google.co.uk
Clayborn.Ducrow,Clayborn,Ducrow,MnCRzK87KNAr,cducrow8q@imgur.com
Ronica.Freemantle,Ronica,Freemantle,MnCRzK87KNAr,rfreemantle8r@storify.com
Candie.Carnachen,Candie,Carnachen,MnCRzK87KNAr,ccarnachen8s@epa.gov
Petronille.Batisse,Petronille,Batisse,MnCRzK87KNAr,pbatisse8t@washington.edu
Siobhan.Atger,Siobhan,Atger,MnCRzK87KNAr,satger8u@github.io
Genny.Blackstone,Genny,Blackstone,MnCRzK87KNAr,gblackstone8v@dailymotion.com
Judie.McGarahan,Judie,McGarahan,MnCRzK87KNAr,jmcgarahan8w@w3.org
Rem.Menendez,Rem,Menendez,MnCRzK87KNAr,rmenendez8x@skyrock.com
Timi.Cartmael,Timi,Cartmael,MnCRzK87KNAr,tcartmael8y@usnews.com
Elisabet.Brunelli,Elisabet,Brunelli,MnCRzK87KNAr,ebrunelli8z@nydailynews.com
Rayshell.Levesque,Rayshell,Levesque,MnCRzK87KNAr,rlevesque90@4shared.com
Peggy.Smedmore,Peggy,Smedmore,MnCRzK87KNAr,psmedmore91@fda.gov
Suzi.Dawby,Suzi,Dawby,MnCRzK87KNAr,sdawby92@alexa.com
Reggie.Josofovitz,Reggie,Josofovitz,MnCRzK87KNAr,rjosofovitz93@simplemachines.org
Fleur.Franklyn,Fleur,Franklyn,MnCRzK87KNAr,ffranklyn94@google.it
Nicolea.Grave,Nicolea,Grave,MnCRzK87KNAr,ngrave95@over-blog.com
Jacinda.Daltry,Jacinda,Daltry,MnCRzK87KNAr,jdaltry96@angelfire.com
Dennison.Schapiro,Dennison,Schapiro,MnCRzK87KNAr,dschapiro97@mozilla.org
Deva.Learmonth,Deva,Learmonth,MnCRzK87KNAr,dlearmonth98@google.com.hk
Eolanda.Chadburn,Eolanda,Chadburn,MnCRzK87KNAr,echadburn99@networksolutions.com
Rudolf.Janauschek,Rudolf,Janauschek,MnCRzK87KNAr,rjanauschek9a@jiathis.com
Stuart.Motton,Stuart,Motton,MnCRzK87KNAr,smotton9b@cisco.com
Guy.Giffaut,Guy,Giffaut,MnCRzK87KNAr,ggiffaut9c@cafepress.com
Ralina.Newis,Ralina,Newis,MnCRzK87KNAr,rnewis9d@marriott.com
Skipton.Sedger,Skipton,Sedger,MnCRzK87KNAr,ssedger9e@vk.com
Thaddus.Nestoruk,Thaddus,Nestoruk,MnCRzK87KNAr,tnestoruk9f@fc2.com
Chantalle.Probin,Chantalle,Probin,MnCRzK87KNAr,cprobin9g@hostgator.com
Jemie.Dring,Jemie,Dring,MnCRzK87KNAr,jdring9h@ihg.com
Magda.Waltho,Magda,Waltho,MnCRzK87KNAr,mwaltho9i@nyu.edu
Natal.Raithby,Natal,Raithby,MnCRzK87KNAr,nraithby9j@histats.com
Ky.Fowden,Ky,Fowden,MnCRzK87KNAr,kfowden9k@hugedomains.com
Zack.Lea,Zack,Lea,MnCRzK87KNAr,zlea9l@ovh.net
Dulciana.Whimper,Dulciana,Whimper,MnCRzK87KNAr,dwhimper9m@shutterfly.com
Lanie.Sextone,Lanie,Sextone,MnCRzK87KNAr,lsextone9n@soundcloud.com
Homer.Drakes,Homer,Drakes,MnCRzK87KNAr,hdrakes9o@goo.ne.jp
Halley.Arch,Halley,Arch,MnCRzK87KNAr,harch9p@state.tx.us
Christie.Couche,Christie,Couche,MnCRzK87KNAr,ccouche9q@xinhuanet.com
Torrin.Rumsby,Torrin,Rumsby,MnCRzK87KNAr,trumsby9r@privacy.gov.au
Sigrid.Geindre,Sigrid,Geindre,MnCRzK87KNAr,sgeindre9s@google.com
Sabine.Truter,Sabine,Truter,MnCRzK87KNAr,struter9t@google.de
Ingrid.Shilston,Ingrid,Shilston,MnCRzK87KNAr,ishilston9u@newyorker.com
Daniele.Appleford,Daniele,Appleford,MnCRzK87KNAr,dappleford9v@ezinearticles.com
Jud.Blackstock,Jud,Blackstock,MnCRzK87KNAr,jblackstock9w@bloglines.com
Lib.Hadlow,Lib,Hadlow,MnCRzK87KNAr,lhadlow9x@twitter.com
Manfred.Brummitt,Manfred,Brummitt,MnCRzK87KNAr,mbrummitt9y@angelfire.com
Rozalin.Hay,Rozalin,Hay,MnCRzK87KNAr,rhay9z@constantcontact.com
Lavinie.Slayny,Lavinie,Slayny,MnCRzK87KNAr,lslaynya0@4shared.com
Tiffie.MacGettigen,Tiffie,MacGettigen,MnCRzK87KNAr,tmacgettigena1@time.com
Doreen.Riach,Doreen,Riach,MnCRzK87KNAr,driacha2@homestead.com
Laurie.Pesic,Laurie,Pesic,MnCRzK87KNAr,lpesica3@shinystat.com
Leif.de Keyser,Leif,de Keyser,MnCRzK87KNAr,ldekeysera4@flavors.me
Aurlie.Teather,Aurlie,Teather,MnCRzK87KNAr,ateathera5@ebay.com
Madelyn.Boynton,Madelyn,Boynton,MnCRzK87KNAr,mboyntona6@unc.edu
Orland.Garshore,Orland,Garshore,MnCRzK87KNAr,ogarshorea7@fda.gov
Elinore.Jonczyk,Elinore,Jonczyk,MnCRzK87KNAr,ejonczyka8@51.la
Riannon.MacDougal,Riannon,MacDougal,MnCRzK87KNAr,rmacdougala9@umn.edu
Dusty.Blei,Dusty,Blei,MnCRzK87KNAr,dbleiaa@mail.ru
Jorrie.Harvie,Jorrie,Harvie,MnCRzK87KNAr,jharvieab@nba.com
Shae.Waggitt,Shae,Waggitt,MnCRzK87KNAr,swaggittac@elpais.com
Reinwald.Klaffs,Reinwald,Klaffs,MnCRzK87KNAr,rklaffsad@yelp.com
Adler.von Grollmann,Adler,von Grollmann,MnCRzK87KNAr,avongrollmannae@sun.com
Adrianne.Tomaszkiewicz,Adrianne,Tomaszkiewicz,MnCRzK87KNAr,atomaszkiewiczaf@devhub.com
Celestyna.Cosgriff,Celestyna,Cosgriff,MnCRzK87KNAr,ccosgriffag@latimes.com
Ansel.Thurman,Ansel,Thurman,MnCRzK87KNAr,athurmanah@ehow.com
Padriac.MacDearmaid,Padriac,MacDearmaid,MnCRzK87KNAr,pmacdearmaidai@irs.gov
Faina.Jepensen,Faina,Jepensen,MnCRzK87KNAr,fjepensenaj@nsw.gov.au
Langston.Fewlass,Langston,Fewlass,MnCRzK87KNAr,lfewlassak@flickr.com
Rodrigo.Vondrak,Rodrigo,Vondrak,MnCRzK87KNAr,rvondrakal@goo.ne.jp
Karlene.Sertin,Karlene,Sertin,MnCRzK87KNAr,ksertinam@thetimes.co.uk
Shandee.Hurdis,Shandee,Hurdis,MnCRzK87KNAr,shurdisan@yale.edu
Dody.Faccini,Dody,Faccini,MnCRzK87KNAr,dfacciniao@google.es
Blondelle.Sissel,Blondelle,Sissel,MnCRzK87KNAr,bsisselap@goo.ne.jp
Devy.Cory,Devy,Cory,MnCRzK87KNAr,dcoryaq@nbcnews.com
Cliff.Tottle,Cliff,Tottle,MnCRzK87KNAr,ctottlear@jugem.jp
Shirline.Bricknall,Shirline,Bricknall,MnCRzK87KNAr,sbricknallas@webmd.com
Hilario.Gheerhaert,Hilario,Gheerhaert,MnCRzK87KNAr,hgheerhaertat@hatena.ne.jp
Nanete.Steedman,Nanete,Steedman,MnCRzK87KNAr,nsteedmanau@de.vu
Danny.Longthorne,Danny,Longthorne,MnCRzK87KNAr,dlongthorneav@cpanel.net
Garv.Rubinshtein,Garv,Rubinshtein,MnCRzK87KNAr,grubinshteinaw@ftc.gov
Lance.Thredder,Lance,Thredder,MnCRzK87KNAr,lthredderax@uiuc.edu
Ellsworth.Gilli,Ellsworth,Gilli,MnCRzK87KNAr,egilliay@simplemachines.org
Helga.Hucklesby,Helga,Hucklesby,MnCRzK87KNAr,hhucklesbyaz@mapquest.com
Carrol.Sang,Carrol,Sang,MnCRzK87KNAr,csangb0@samsung.com
Catherine.Dondon,Catherine,Dondon,MnCRzK87KNAr,cdondonb1@fema.gov
Geraldine.Blunsden,Geraldine,Blunsden,MnCRzK87KNAr,gblunsdenb2@zdnet.com
Raff.Grishanin,Raff,Grishanin,MnCRzK87KNAr,rgrishaninb3@paginegialle.it
Gnni.Liepmann,Gnni,Liepmann,MnCRzK87KNAr,gliepmannb4@cyberchimps.com
Devlen.Akess,Devlen,Akess,MnCRzK87KNAr,dakessb5@ft.com
Trudie.Gallatly,Trudie,Gallatly,MnCRzK87KNAr,tgallatlyb6@zdnet.com
Griffin.McArte,Griffin,McArte,MnCRzK87KNAr,gmcarteb7@chron.com
Faith.Daouse,Faith,Daouse,MnCRzK87KNAr,fdaouseb8@businesswire.com
Bronny.Ledington,Bronny,Ledington,MnCRzK87KNAr,bledingtonb9@theglobeandmail.com
Dennie.Ferier,Dennie,Ferier,MnCRzK87KNAr,dferierba@ft.com
Jedd.Rollins,Jedd,Rollins,MnCRzK87KNAr,jrollinsbb@hibu.com
Aundrea.Esland,Aundrea,Esland,MnCRzK87KNAr,aeslandbc@e-recht24.de
Farleigh.Astill,Farleigh,Astill,MnCRzK87KNAr,fastillbd@independent.co.uk
Kay.Ferran,Kay,Ferran,MnCRzK87KNAr,kferranbe@howstuffworks.com
Clarissa.Martill,Clarissa,Martill,MnCRzK87KNAr,cmartillbf@mlb.com
Hayes.Mioni,Hayes,Mioni,MnCRzK87KNAr,hmionibg@jigsy.com
Gwendolin.Holtum,Gwendolin,Holtum,MnCRzK87KNAr,gholtumbh@state.gov
Abigail.Labell,Abigail,Labell,MnCRzK87KNAr,alabellbi@census.gov
Rayshell.Brownsett,Rayshell,Brownsett,MnCRzK87KNAr,rbrownsettbj@tmall.com
Stafford.Reddan,Stafford,Reddan,MnCRzK87KNAr,sreddanbk@w3.org
Penny.Cowgill,Penny,Cowgill,MnCRzK87KNAr,pcowgillbl@free.fr
Davon.Lehenmann,Davon,Lehenmann,MnCRzK87KNAr,dlehenmannbm@aol.com
Israel.Kitchen,Israel,Kitchen,MnCRzK87KNAr,ikitchenbn@yahoo.com
West.Keats,West,Keats,MnCRzK87KNAr,wkeatsbo@timesonline.co.uk
Carlita.Cranham,Carlita,Cranham,MnCRzK87KNAr,ccranhambp@jalbum.net
Rowe.MacComiskey,Rowe,MacComiskey,MnCRzK87KNAr,rmaccomiskeybq@zimbio.com
Shae.Caplis,Shae,Caplis,MnCRzK87KNAr,scaplisbr@nih.gov
Michele.Jakobsson,Michele,Jakobsson,MnCRzK87KNAr,mjakobssonbs@stumbleupon.com
Esma.Duckhouse,Esma,Duckhouse,MnCRzK87KNAr,educkhousebt@mac.com
Willy.Blowfelde,Willy,Blowfelde,MnCRzK87KNAr,wblowfeldebu@yellowpages.com
Jude.Joint,Jude,Joint,MnCRzK87KNAr,jjointbv@ucsd.edu
Arnoldo.MacGibbon,Arnoldo,MacGibbon,MnCRzK87KNAr,amacgibbonbw@wordpress.org
Abagael.Harrie,Abagael,Harrie,MnCRzK87KNAr,aharriebx@comsenz.com
Lauralee.Cowill,Lauralee,Cowill,MnCRzK87KNAr,lcowillby@xrea.com
Wallace.Cahn,Wallace,Cahn,MnCRzK87KNAr,wcahnbz@plala.or.jp
Ambrosi.Blankau,Ambrosi,Blankau,MnCRzK87KNAr,ablankauc0@ucoz.ru
Salvador.Mitchiner,Salvador,Mitchiner,MnCRzK87KNAr,smitchinerc1@walmart.com
Brok.Spinas,Brok,Spinas,MnCRzK87KNAr,bspinasc2@paypal.com
Liuka.Cohalan,Liuka,Cohalan,MnCRzK87KNAr,lcohalanc3@skyrock.com
Dusty.Aseef,Dusty,Aseef,MnCRzK87KNAr,daseefc4@delicious.com
Arlie.La Wille,Arlie,La Wille,MnCRzK87KNAr,alawillec5@auda.org.au
Gardener.Kopje,Gardener,Kopje,MnCRzK87KNAr,gkopjec6@etsy.com
Kerstin.Wearne,Kerstin,Wearne,MnCRzK87KNAr,kwearnec7@baidu.com
Perkin.Stayte,Perkin,Stayte,MnCRzK87KNAr,pstaytec8@sphinn.com
Waiter.Carnegy,Waiter,Carnegy,MnCRzK87KNAr,wcarnegyc9@miitbeian.gov.cn
Peri.Stocking,Peri,Stocking,MnCRzK87KNAr,pstockingca@cmu.edu
Durand.Zywicki,Durand,Zywicki,MnCRzK87KNAr,dzywickicb@dell.com
Zorana.Doale,Zorana,Doale,MnCRzK87KNAr,zdoalecc@biblegateway.com
Torr.Ellingworth,Torr,Ellingworth,MnCRzK87KNAr,tellingworthcd@thetimes.co.uk
Elsbeth.Pocke,Elsbeth,Pocke,MnCRzK87KNAr,epockece@drupal.org
Phillie.McTerlagh,Phillie,McTerlagh,MnCRzK87KNAr,pmcterlaghcf@tamu.edu
Merle.Dobrowolski,Merle,Dobrowolski,MnCRzK87KNAr,mdobrowolskicg@purevolume.com
Melvin.Arnott,Melvin,Arnott,MnCRzK87KNAr,marnottch@wufoo.com
Monika.Whyler,Monika,Whyler,MnCRzK87KNAr,mwhylerci@yale.edu
Evelina.Gudgen,Evelina,Gudgen,MnCRzK87KNAr,egudgencj@hatena.ne.jp
Lamont.Isard,Lamont,Isard,MnCRzK87KNAr,lisardck@wufoo.com
Guss.Oxherd,Guss,Oxherd,MnCRzK87KNAr,goxherdcl@nifty.com
Ira.Woollhead,Ira,Woollhead,MnCRzK87KNAr,iwoollheadcm@businesswire.com
Clerissa.Terbrug,Clerissa,Terbrug,MnCRzK87KNAr,cterbrugcn@si.edu
Karlee.Kisbey,Karlee,Kisbey,MnCRzK87KNAr,kkisbeyco@odnoklassniki.ru
Guillemette.Walcar,Guillemette,Walcar,MnCRzK87KNAr,gwalcarcp@behance.net
Dimitry.Danaher,Dimitry,Danaher,MnCRzK87KNAr,ddanahercq@github.com
Noland.Rusbridge,Noland,Rusbridge,MnCRzK87KNAr,nrusbridgecr@reddit.com
Jeffrey.Rosborough,Jeffrey,Rosborough,MnCRzK87KNAr,jrosboroughcs@canalblog.com
Goddart.Nibley,Goddart,Nibley,MnCRzK87KNAr,gnibleyct@japanpost.jp
Wainwright.MacKimm,Wainwright,MacKimm,MnCRzK87KNAr,wmackimmcu@state.tx.us
Hortense.Lygoe,Hortense,Lygoe,MnCRzK87KNAr,hlygoecv@hubpages.com
Paulina.Ainslee,Paulina,Ainslee,MnCRzK87KNAr,painsleecw@wikia.com
Yorgo.Vittet,Yorgo,Vittet,MnCRzK87KNAr,yvittetcx@elpais.com
Sig.Vinau,Sig,Vinau,MnCRzK87KNAr,svinaucy@livejournal.com
Cybil.Lukasik,Cybil,Lukasik,MnCRzK87KNAr,clukasikcz@etsy.com
Falito.Tours,Falito,Tours,MnCRzK87KNAr,ftoursd0@rediff.com
Bjorn.Glanert,Bjorn,Glanert,MnCRzK87KNAr,bglanertd1@i2i.jp
Tania.Hazelby,Tania,Hazelby,MnCRzK87KNAr,thazelbyd2@chron.com
Kanya.Kiddle,Kanya,Kiddle,MnCRzK87KNAr,kkiddled3@slashdot.org
Keeley.Quinion,Keeley,Quinion,MnCRzK87KNAr,kquiniond4@issuu.com
Jackquelin.Roches,Jackquelin,Roches,MnCRzK87KNAr,jrochesd5@timesonline.co.uk
Chandal.Grenkov,Chandal,Grenkov,MnCRzK87KNAr,cgrenkovd6@omniture.com
Avie.Salliere,Avie,Salliere,MnCRzK87KNAr,asalliered7@moonfruit.com
Heddi.MacDuff,Heddi,MacDuff,MnCRzK87KNAr,hmacduffd8@epa.gov
Jacqueline.Percival,Jacqueline,Percival,MnCRzK87KNAr,jpercivald9@sun.com
Judye.Stirland,Judye,Stirland,MnCRzK87KNAr,jstirlandda@networkadvertising.org
Eryn.Horribine,Eryn,Horribine,MnCRzK87KNAr,ehorribinedb@statcounter.com
Cleopatra.Pomeroy,Cleopatra,Pomeroy,MnCRzK87KNAr,cpomeroydc@patch.com
Janelle.Rozenbaum,Janelle,Rozenbaum,MnCRzK87KNAr,jrozenbaumdd@theguardian.com
Leon.Sexti,Leon,Sexti,MnCRzK87KNAr,lsextide@biblegateway.com
Felicle.Emsden,Felicle,Emsden,MnCRzK87KNAr,femsdendf@salon.com
Olly.Semour,Olly,Semour,MnCRzK87KNAr,osemourdg@shop-pro.jp
Morgan.Harrema,Morgan,Harrema,MnCRzK87KNAr,mharremadh@shutterfly.com
Melita.Griniov,Melita,Griniov,MnCRzK87KNAr,mgriniovdi@samsung.com
Abie.Leversuch,Abie,Leversuch,MnCRzK87KNAr,aleversuchdj@princeton.edu
Lidia.Skain,Lidia,Skain,MnCRzK87KNAr,lskaindk@theguardian.com
Rufus.Bastie,Rufus,Bastie,MnCRzK87KNAr,rbastiedl@theglobeandmail.com
Dusty.Bowie,Dusty,Bowie,MnCRzK87KNAr,dbowiedm@washington.edu
Cirilo.Karleman,Cirilo,Karleman,MnCRzK87KNAr,ckarlemandn@jigsy.com
Raimondo.Forsey,Raimondo,Forsey,MnCRzK87KNAr,rforseydo@nymag.com
Zuzana.Raulstone,Zuzana,Raulstone,MnCRzK87KNAr,zraulstonedp@ihg.com
Milicent.Capeloff,Milicent,Capeloff,MnCRzK87KNAr,mcapeloffdq@flavors.me
Rozele.Schwandt,Rozele,Schwandt,MnCRzK87KNAr,rschwandtdr@businessweek.com
Gray.Brazur,Gray,Brazur,MnCRzK87KNAr,gbrazurds@arizona.edu
Meyer.Epine,Meyer,Epine,MnCRzK87KNAr,mepinedt@netvibes.com
Leann.Medeway,Leann,Medeway,MnCRzK87KNAr,lmedewaydu@devhub.com
Bourke.Navaro,Bourke,Navaro,MnCRzK87KNAr,bnavarodv@godaddy.com
Tobit.McReynolds,Tobit,McReynolds,MnCRzK87KNAr,tmcreynoldsdw@hatena.ne.jp
Christin.Helm,Christin,Helm,MnCRzK87KNAr,chelmdx@chicagotribune.com
Guillermo.Newick,Guillermo,Newick,MnCRzK87KNAr,gnewickdy@thetimes.co.uk
Dorree.Tann,Dorree,Tann,MnCRzK87KNAr,dtanndz@prweb.com
Ichabod.O'Flaherty,Ichabod,O'Flaherty,MnCRzK87KNAr,ioflahertye0@bloglovin.com
Emyle.Casali,Emyle,Casali,MnCRzK87KNAr,ecasalie1@comsenz.com
Rhianna.Kubasiewicz,Rhianna,Kubasiewicz,MnCRzK87KNAr,rkubasiewicze2@pen.io
Jesselyn.Wheelhouse,Jesselyn,Wheelhouse,MnCRzK87KNAr,jwheelhousee3@topsy.com
Fraze.McRinn,Fraze,McRinn,MnCRzK87KNAr,fmcrinne4@google.co.jp
Adah.Wolfendale,Adah,Wolfendale,MnCRzK87KNAr,awolfendalee5@github.io
Kaylyn.Grigolashvill,Kaylyn,Grigolashvill,MnCRzK87KNAr,kgrigolashville6@discovery.com
Lorelle.Purdey,Lorelle,Purdey,MnCRzK87KNAr,lpurdeye7@chron.com
Merill.Webb-Bowen,Merill,Webb-Bowen,MnCRzK87KNAr,mwebbbowene8@nhs.uk
Grayce.Gilbert,Grayce,Gilbert,MnCRzK87KNAr,ggilberte9@toplist.cz
Roger.Rollings,Roger,Rollings,MnCRzK87KNAr,rrollingsea@pbs.org
Dyanne.Royans,Dyanne,Royans,MnCRzK87KNAr,droyanseb@weather.com
Ernst.Dowall,Ernst,Dowall,MnCRzK87KNAr,edowallec@ed.gov
Brod.Jaffrey,Brod,Jaffrey,MnCRzK87KNAr,bjaffreyed@people.com.cn
Sauveur.Bertrand,Sauveur,Bertrand,MnCRzK87KNAr,sbertrandee@google.fr
Adolph.Garton,Adolph,Garton,MnCRzK87KNAr,agartonef@wix.com
Kandy.Noyes,Kandy,Noyes,MnCRzK87KNAr,knoyeseg@apache.org
Vernor.McNuff,Vernor,McNuff,MnCRzK87KNAr,vmcnuffeh@vk.com
Hewitt.Carswell,Hewitt,Carswell,MnCRzK87KNAr,hcarswellei@dagondesign.com
Laetitia.Stockport,Laetitia,Stockport,MnCRzK87KNAr,lstockportej@dell.com
Flory.Cripwell,Flory,Cripwell,MnCRzK87KNAr,fcripwellek@nationalgeographic.com
Melamie.Brambell,Melamie,Brambell,MnCRzK87KNAr,mbrambellel@vinaora.com
Orelie.Yeude,Orelie,Yeude,MnCRzK87KNAr,oyeudeem@umich.edu
Dosi.Dallin,Dosi,Dallin,MnCRzK87KNAr,ddallinen@nasa.gov
Meg.Counter,Meg,Counter,MnCRzK87KNAr,mcountereo@cisco.com
Franz.Matei,Franz,Matei,MnCRzK87KNAr,fmateiep@icio.us
Caesar.Denman,Caesar,Denman,MnCRzK87KNAr,cdenmaneq@dyndns.org
Myles.Linturn,Myles,Linturn,MnCRzK87KNAr,mlinturner@washington.edu
Adelaide.Goodinge,Adelaide,Goodinge,MnCRzK87KNAr,agoodingees@zimbio.com
Chrissie.Jelks,Chrissie,Jelks,MnCRzK87KNAr,cjelkset@google.fr
Gordon.Loveland,Gordon,Loveland,MnCRzK87KNAr,glovelandeu@stanford.edu
Falito.Braga,Falito,Braga,MnCRzK87KNAr,fbragaev@stumbleupon.com
Crin.Kenworthey,Crin,Kenworthey,MnCRzK87KNAr,ckenwortheyew@indiegogo.com
Paquito.Greenham,Paquito,Greenham,MnCRzK87KNAr,pgreenhamex@paginegialle.it
Bellanca.Fumagallo,Bellanca,Fumagallo,MnCRzK87KNAr,bfumagalloey@jiathis.com
Konstance.Aspital,Konstance,Aspital,MnCRzK87KNAr,kaspitalez@lulu.com
Obed.Colwill,Obed,Colwill,MnCRzK87KNAr,ocolwillf0@soup.io
Christabella.Arends,Christabella,Arends,MnCRzK87KNAr,carendsf1@skyrock.com
Kamillah.Broggetti,Kamillah,Broggetti,MnCRzK87KNAr,kbroggettif2@php.net
Elvina.Elsom,Elvina,Elsom,MnCRzK87KNAr,eelsomf3@patch.com
Sarah.Gane,Sarah,Gane,MnCRzK87KNAr,sganef4@abc.net.au
Daphne.Blakeway,Daphne,Blakeway,MnCRzK87KNAr,dblakewayf5@marriott.com
Dylan.Bortolussi,Dylan,Bortolussi,MnCRzK87KNAr,dbortolussif6@japanpost.jp
Trina.Assandri,Trina,Assandri,MnCRzK87KNAr,tassandrif7@instagram.com
Ingeborg.Nellen,Ingeborg,Nellen,MnCRzK87KNAr,inellenf8@uiuc.edu
Osbourn.Cecely,Osbourn,Cecely,MnCRzK87KNAr,ocecelyf9@oaic.gov.au
Kessia.McGawn,Kessia,McGawn,MnCRzK87KNAr,kmcgawnfa@themeforest.net
Neill.MacLaverty,Neill,MacLaverty,MnCRzK87KNAr,nmaclavertyfb@cmu.edu
Vivianne.Sarjant,Vivianne,Sarjant,MnCRzK87KNAr,vsarjantfc@istockphoto.com
Rosabelle.Coare,Rosabelle,Coare,MnCRzK87KNAr,rcoarefd@com.com
Web.Isenor,Web,Isenor,MnCRzK87KNAr,wisenorfe@nsw.gov.au
Dorolisa.Witcherley,Dorolisa,Witcherley,MnCRzK87KNAr,dwitcherleyff@bizjournals.com
Reggie.Benditt,Reggie,Benditt,MnCRzK87KNAr,rbendittfg@yale.edu
Roseanne.Lade,Roseanne,Lade,MnCRzK87KNAr,rladefh@icio.us
Raoul.Duetsche,Raoul,Duetsche,MnCRzK87KNAr,rduetschefi@prlog.org
Doug.Wardlaw,Doug,Wardlaw,MnCRzK87KNAr,dwardlawfj@senate.gov
Wilhelmina.Todeo,Wilhelmina,Todeo,MnCRzK87KNAr,wtodeofk@miitbeian.gov.cn
Adolphus.Pyrke,Adolphus,Pyrke,MnCRzK87KNAr,apyrkefl@studiopress.com
Van.Carvell,Van,Carvell,MnCRzK87KNAr,vcarvellfm@apple.com
Violante.Beiderbecke,Violante,Beiderbecke,MnCRzK87KNAr,vbeiderbeckefn@springer.com
Trixy.Davenell,Trixy,Davenell,MnCRzK87KNAr,tdavenellfo@delicious.com
Gwenore.Levermore,Gwenore,Levermore,MnCRzK87KNAr,glevermorefp@marriott.com
Maison.Priestman,Maison,Priestman,MnCRzK87KNAr,mpriestmanfq@nps.gov
Forbes.Buckthorpe,Forbes,Buckthorpe,MnCRzK87KNAr,fbuckthorpefr@washington.edu
Wildon.Pillifant,Wildon,Pillifant,MnCRzK87KNAr,wpillifantfs@mac.com
Roi.Camamile,Roi,Camamile,MnCRzK87KNAr,rcamamileft@businessweek.com
Dorise.Bickerstasse,Dorise,Bickerstasse,MnCRzK87KNAr,dbickerstassefu@addthis.com
Al.Esbrook,Al,Esbrook,MnCRzK87KNAr,aesbrookfv@a8.net
Arri.Goldstone,Arri,Goldstone,MnCRzK87KNAr,agoldstonefw@godaddy.com
Astra.Billany,Astra,Billany,MnCRzK87KNAr,abillanyfx@va.gov
Cammy.Pietzke,Cammy,Pietzke,MnCRzK87KNAr,cpietzkefy@whitehouse.gov
Elianora.Eite,Elianora,Eite,MnCRzK87KNAr,eeitefz@icq.com
Wendell.Mila,Wendell,Mila,MnCRzK87KNAr,wmilag0@mtv.com
Bram.Shields,Bram,Shields,MnCRzK87KNAr,bshieldsg1@trellian.com
Lexy.Morten,Lexy,Morten,MnCRzK87KNAr,lmorteng2@cdc.gov
Rourke.Hugonin,Rourke,Hugonin,MnCRzK87KNAr,rhugoning3@mashable.com
Anselm.Cubbin,Anselm,Cubbin,MnCRzK87KNAr,acubbing4@fc2.com
Boyd.Bayldon,Boyd,Bayldon,MnCRzK87KNAr,bbayldong5@google.it
Mick.Gavaran,Mick,Gavaran,MnCRzK87KNAr,mgavarang6@spiegel.de
Kippar.Rosenstengel,Kippar,Rosenstengel,MnCRzK87KNAr,krosenstengelg7@dailymail.co.uk
Saunders.Haysom,Saunders,Haysom,MnCRzK87KNAr,shaysomg8@behance.net
Karney.Gyde,Karney,Gyde,MnCRzK87KNAr,kgydeg9@nifty.com
Rosella.Pehrsson,Rosella,Pehrsson,MnCRzK87KNAr,rpehrssonga@kickstarter.com
Zorana.Tampling,Zorana,Tampling,MnCRzK87KNAr,ztamplinggb@nba.com
Jeffie.Taft,Jeffie,Taft,MnCRzK87KNAr,jtaftgc@craigslist.org
Elmo.Janiak,Elmo,Janiak,MnCRzK87KNAr,ejaniakgd@marriott.com
Gunther.Maddaford,Gunther,Maddaford,MnCRzK87KNAr,gmaddafordge@comcast.net
Luz.Flude,Luz,Flude,MnCRzK87KNAr,lfludegf@ocn.ne.jp
Spence.Pile,Spence,Pile,MnCRzK87KNAr,spilegg@digg.com
Rey.Donneely,Rey,Donneely,MnCRzK87KNAr,rdonneelygh@jimdo.com
Patton.Kreutzer,Patton,Kreutzer,MnCRzK87KNAr,pkreutzergi@mayoclinic.com
Levi.Corradi,Levi,Corradi,MnCRzK87KNAr,lcorradigj@gizmodo.com
Dulcie.Brownlie,Dulcie,Brownlie,MnCRzK87KNAr,dbrownliegk@sfgate.com
Bari.Dagnall,Bari,Dagnall,MnCRzK87KNAr,bdagnallgl@csmonitor.com
Sallie.Creak,Sallie,Creak,MnCRzK87KNAr,screakgm@com.com
Brenn.Hodgets,Brenn,Hodgets,MnCRzK87KNAr,bhodgetsgn@deliciousdays.com
Myrah.Keyworth,Myrah,Keyworth,MnCRzK87KNAr,mkeyworthgo@google.pl
Guillema.Faherty,Guillema,Faherty,MnCRzK87KNAr,gfahertygp@redcross.org
Shep.Rennison,Shep,Rennison,MnCRzK87KNAr,srennisongq@sun.com
Reina.Urling,Reina,Urling,MnCRzK87KNAr,rurlinggr@etsy.com
Fredek.Jeanin,Fredek,Jeanin,MnCRzK87KNAr,fjeanings@topsy.com
Helena.Chadwen,Helena,Chadwen,MnCRzK87KNAr,hchadwengt@slideshare.net
Finley.Grzeszczak,Finley,Grzeszczak,MnCRzK87KNAr,fgrzeszczakgu@twitter.com
Natka.Reihm,Natka,Reihm,MnCRzK87KNAr,nreihmgv@smugmug.com
Bea.Tilson,Bea,Tilson,MnCRzK87KNAr,btilsongw@networkadvertising.org
Royal.Isgar,Royal,Isgar,MnCRzK87KNAr,risgargx@imdb.com
Allie.Milksop,Allie,Milksop,MnCRzK87KNAr,amilksopgy@skype.com
Clio.Sandels,Clio,Sandels,MnCRzK87KNAr,csandelsgz@oracle.com
Town.MacSkeaghan,Town,MacSkeaghan,MnCRzK87KNAr,tmacskeaghanh0@state.tx.us
Becky.Revie,Becky,Revie,MnCRzK87KNAr,brevieh1@youku.com
Michel.Burth,Michel,Burth,MnCRzK87KNAr,mburthh2@zdnet.com
Elliott.Comiskey,Elliott,Comiskey,MnCRzK87KNAr,ecomiskeyh3@cbslocal.com
Levey.Girault,Levey,Girault,MnCRzK87KNAr,lgiraulth4@cloudflare.com
Thekla.Mc Gee,Thekla,Mc Gee,MnCRzK87KNAr,tmcgeeh5@vinaora.com
Herminia.Downing,Herminia,Downing,MnCRzK87KNAr,hdowningh6@yolasite.com
Burty.Pendergast,Burty,Pendergast,MnCRzK87KNAr,bpendergasth7@goo.ne.jp
Bunnie.Stoad,Bunnie,Stoad,MnCRzK87KNAr,bstoadh8@china.com.cn
Gil.Lamburne,Gil,Lamburne,MnCRzK87KNAr,glamburneh9@gravatar.com
Buiron.Hutchcraft,Buiron,Hutchcraft,MnCRzK87KNAr,bhutchcraftha@g.co
Arleyne.Pickrill,Arleyne,Pickrill,MnCRzK87KNAr,apickrillhb@google.com.br
Noell.Gallihaulk,Noell,Gallihaulk,MnCRzK87KNAr,ngallihaulkhc@rambler.ru
Maddi.Houlworth,Maddi,Houlworth,MnCRzK87KNAr,mhoulworthhd@upenn.edu
Raynard.Romanetti,Raynard,Romanetti,MnCRzK87KNAr,rromanettihe@de.vu
Lacy.Patnelli,Lacy,Patnelli,MnCRzK87KNAr,lpatnellihf@jimdo.com
Nikolai.Faichnie,Nikolai,Faichnie,MnCRzK87KNAr,nfaichniehg@eepurl.com
Egor.Dowdam,Egor,Dowdam,MnCRzK87KNAr,edowdamhh@hc360.com
Dolph.Grogona,Dolph,Grogona,MnCRzK87KNAr,dgrogonahi@mozilla.com
Frannie.Ciubutaro,Frannie,Ciubutaro,MnCRzK87KNAr,fciubutarohj@state.tx.us
Evelin.Calverd,Evelin,Calverd,MnCRzK87KNAr,ecalverdhk@quantcast.com
Florentia.Aspinall,Florentia,Aspinall,MnCRzK87KNAr,faspinallhl@netscape.com
Patrizio.Kinch,Patrizio,Kinch,MnCRzK87KNAr,pkinchhm@about.com
Candis.Aggis,Candis,Aggis,MnCRzK87KNAr,caggishn@clickbank.net
Cthrine.Choldcroft,Cthrine,Choldcroft,MnCRzK87KNAr,ccholdcroftho@imageshack.us
Faye.Parminter,Faye,Parminter,MnCRzK87KNAr,fparminterhp@hubpages.com
Elga.Frickey,Elga,Frickey,MnCRzK87KNAr,efrickeyhq@yolasite.com
Mark.Flemming,Mark,Flemming,MnCRzK87KNAr,mflemminghr@fc2.com
Taffy.Vidler,Taffy,Vidler,MnCRzK87KNAr,tvidlerhs@foxnews.com
Cornall.Croote,Cornall,Croote,MnCRzK87KNAr,ccrooteht@histats.com
Correy.Melior,Correy,Melior,MnCRzK87KNAr,cmeliorhu@delicious.com
Cheri.Tunna,Cheri,Tunna,MnCRzK87KNAr,ctunnahv@msn.com
Maxwell.Feasley,Maxwell,Feasley,MnCRzK87KNAr,mfeasleyhw@craigslist.org
Ahmad.Mocquer,Ahmad,Mocquer,MnCRzK87KNAr,amocquerhx@deliciousdays.com
Kimmie.Bayford,Kimmie,Bayford,MnCRzK87KNAr,kbayfordhy@utexas.edu
Janeczka.MacGorman,Janeczka,MacGorman,MnCRzK87KNAr,jmacgormanhz@cbslocal.com
Harwell.Bonett,Harwell,Bonett,MnCRzK87KNAr,hbonetti0@blogspot.com
Buffy.Videneev,Buffy,Videneev,MnCRzK87KNAr,bvideneevi1@wp.com
Laraine.Garrould,Laraine,Garrould,MnCRzK87KNAr,lgarrouldi2@i2i.jp
Levin.Siggin,Levin,Siggin,MnCRzK87KNAr,lsiggini3@4shared.com
Marnia.Pavkovic,Marnia,Pavkovic,MnCRzK87KNAr,mpavkovici4@tinyurl.com
Boycie.Mergue,Boycie,Mergue,MnCRzK87KNAr,bmerguei5@guardian.co.uk
Beckie.Hebborn,Beckie,Hebborn,MnCRzK87KNAr,bhebborni6@foxnews.com
Dorelle.Ruddy,Dorelle,Ruddy,MnCRzK87KNAr,druddyi7@biglobe.ne.jp
Teddie.Hyndman,Teddie,Hyndman,MnCRzK87KNAr,thyndmani8@macromedia.com
Bev.Volante,Bev,Volante,MnCRzK87KNAr,bvolantei9@ow.ly
Corly.Wayland,Corly,Wayland,MnCRzK87KNAr,cwaylandia@ucoz.ru
Ham.Cecely,Ham,Cecely,MnCRzK87KNAr,hcecelyib@economist.com
Dana.MacIan,Dana,MacIan,MnCRzK87KNAr,dmacianic@forbes.com
Callean.Sheehy,Callean,Sheehy,MnCRzK87KNAr,csheehyid@msu.edu
Rollie.Chetwin,Rollie,Chetwin,MnCRzK87KNAr,rchetwinie@japanpost.jp
Joann.Remnant,Joann,Remnant,MnCRzK87KNAr,jremnantif@indiatimes.com
Alvina.Merigeau,Alvina,Merigeau,MnCRzK87KNAr,amerigeauig@japanpost.jp
Gustie.Wrey,Gustie,Wrey,MnCRzK87KNAr,gwreyih@senate.gov
Casey.Kinchington,Casey,Kinchington,MnCRzK87KNAr,ckinchingtonii@naver.com
Jehanna.Petras,Jehanna,Petras,MnCRzK87KNAr,jpetrasij@yelp.com
Carlota.Toping,Carlota,Toping,MnCRzK87KNAr,ctopingik@un.org
Marcelle.McFetridge,Marcelle,McFetridge,MnCRzK87KNAr,mmcfetridgeil@nba.com
Thea.Bellwood,Thea,Bellwood,MnCRzK87KNAr,tbellwoodim@phpbb.com
Donielle.Eathorne,Donielle,Eathorne,MnCRzK87KNAr,deathornein@dmoz.org
Dulcinea.Millbank,Dulcinea,Millbank,MnCRzK87KNAr,dmillbankio@yellowpages.com
Byran.Inston,Byran,Inston,MnCRzK87KNAr,binstonip@ftc.gov
Barbabas.Giovannacci,Barbabas,Giovannacci,MnCRzK87KNAr,bgiovannacciiq@amazon.de
Ichabod.Grinstead,Ichabod,Grinstead,MnCRzK87KNAr,igrinsteadir@cornell.edu
Sonja.Giotto,Sonja,Giotto,MnCRzK87KNAr,sgiottois@hp.com
Teodora.Roxbee,Teodora,Roxbee,MnCRzK87KNAr,troxbeeit@typepad.com
Blinni.Bimson,Blinni,Bimson,MnCRzK87KNAr,bbimsoniu@woothemes.com
Celle.Boncore,Celle,Boncore,MnCRzK87KNAr,cboncoreiv@google.fr
Laverna.Rushbrook,Laverna,Rushbrook,MnCRzK87KNAr,lrushbrookiw@skyrock.com
Cherlyn.Roiz,Cherlyn,Roiz,MnCRzK87KNAr,croizix@psu.edu
Rania.Ellcome,Rania,Ellcome,MnCRzK87KNAr,rellcomeiy@furl.net
Thia.Eseler,Thia,Eseler,MnCRzK87KNAr,teseleriz@comcast.net
Bart.Himpson,Bart,Himpson,MnCRzK87KNAr,bhimpsonj0@hao123.com
Cloe.Revett,Cloe,Revett,MnCRzK87KNAr,crevettj1@exblog.jp
Zeke.Greenshields,Zeke,Greenshields,MnCRzK87KNAr,zgreenshieldsj2@meetup.com
Iago.Windaybank,Iago,Windaybank,MnCRzK87KNAr,iwindaybankj3@4shared.com
Boyd.Shubotham,Boyd,Shubotham,MnCRzK87KNAr,bshubothamj4@engadget.com
Ingrid.Melmoth,Ingrid,Melmoth,MnCRzK87KNAr,imelmothj5@flavors.me
Brooks.Drohane,Brooks,Drohane,MnCRzK87KNAr,bdrohanej6@slashdot.org
Somerset.Pinckney,Somerset,Pinckney,MnCRzK87KNAr,spinckneyj7@tripadvisor.com
Garret.Allpress,Garret,Allpress,MnCRzK87KNAr,gallpressj8@icio.us
Leanora.McCafferky,Leanora,McCafferky,MnCRzK87KNAr,lmccafferkyj9@howstuffworks.com
Merrile.Reina,Merrile,Reina,MnCRzK87KNAr,mreinaja@nbcnews.com
Brietta.Dandie,Brietta,Dandie,MnCRzK87KNAr,bdandiejb@senate.gov
Sybilla.Puvia,Sybilla,Puvia,MnCRzK87KNAr,spuviajc@eventbrite.com
Annabel.Demogeot,Annabel,Demogeot,MnCRzK87KNAr,ademogeotjd@skype.com
Dylan.Ridding,Dylan,Ridding,MnCRzK87KNAr,driddingje@tumblr.com
Amitie.Scarisbrick,Amitie,Scarisbrick,MnCRzK87KNAr,ascarisbrickjf@tripod.com
Ignaz.Sara,Ignaz,Sara,MnCRzK87KNAr,isarajg@telegraph.co.uk
Edin.Hedau,Edin,Hedau,MnCRzK87KNAr,ehedaujh@nbcnews.com
Fredrick.Tolley,Fredrick,Tolley,MnCRzK87KNAr,ftolleyji@typepad.com
Salli.Windrus,Salli,Windrus,MnCRzK87KNAr,swindrusjj@usda.gov
Corie.Bosenworth,Corie,Bosenworth,MnCRzK87KNAr,cbosenworthjk@wikipedia.org
Melisenda.Kneeshaw,Melisenda,Kneeshaw,MnCRzK87KNAr,mkneeshawjl@japanpost.jp
Shel.Duplain,Shel,Duplain,MnCRzK87KNAr,sduplainjm@delicious.com
Travis.Scotti,Travis,Scotti,MnCRzK87KNAr,tscottijn@berkeley.edu
Reed.Parlor,Reed,Parlor,MnCRzK87KNAr,rparlorjo@scribd.com
Olvan.Guerreru,Olvan,Guerreru,MnCRzK87KNAr,oguerrerujp@tamu.edu
Lorena.Lempke,Lorena,Lempke,MnCRzK87KNAr,llempkejq@hc360.com
Abey.Bouch,Abey,Bouch,MnCRzK87KNAr,abouchjr@salon.com
Gunther.Barkshire,Gunther,Barkshire,MnCRzK87KNAr,gbarkshirejs@cam.ac.uk
Dyana.Priestner,Dyana,Priestner,MnCRzK87KNAr,dpriestnerjt@ebay.co.uk
Shalne.Gass,Shalne,Gass,MnCRzK87KNAr,sgassju@lycos.com
Nikolaus.Parbrook,Nikolaus,Parbrook,MnCRzK87KNAr,nparbrookjv@utexas.edu
Elyse.Van der Hoven,Elyse,Van der Hoven,MnCRzK87KNAr,evanderhovenjw@nymag.com
Gayle.Mingay,Gayle,Mingay,MnCRzK87KNAr,gmingayjx@1688.com
Shelbi.Boddice,Shelbi,Boddice,MnCRzK87KNAr,sboddicejy@hud.gov
Enrico.Gorler,Enrico,Gorler,MnCRzK87KNAr,egorlerjz@mozilla.com
Cosmo.Crose,Cosmo,Crose,MnCRzK87KNAr,ccrosek0@businesswire.com
Deena.Dunkerk,Deena,Dunkerk,MnCRzK87KNAr,ddunkerkk1@un.org
Ashely.Jankovic,Ashely,Jankovic,MnCRzK87KNAr,ajankovick2@dmoz.org
Katinka.Neasam,Katinka,Neasam,MnCRzK87KNAr,kneasamk3@miibeian.gov.cn
Gerda.Silwood,Gerda,Silwood,MnCRzK87KNAr,gsilwoodk4@columbia.edu
Germain.Brothwell,Germain,Brothwell,MnCRzK87KNAr,gbrothwellk5@google.cn
Eziechiele.Elie,Eziechiele,Elie,MnCRzK87KNAr,eeliek6@geocities.jp
Heinrik.Badrick,Heinrik,Badrick,MnCRzK87KNAr,hbadrickk7@columbia.edu
Levin.Tennick,Levin,Tennick,MnCRzK87KNAr,ltennickk8@vistaprint.com
Correna.Zorzoni,Correna,Zorzoni,MnCRzK87KNAr,czorzonik9@ibm.com
Clarabelle.Buttrum,Clarabelle,Buttrum,MnCRzK87KNAr,cbuttrumka@lycos.com
Jillene.Lintott,Jillene,Lintott,MnCRzK87KNAr,jlintottkb@washington.edu
Talbot.Selburn,Talbot,Selburn,MnCRzK87KNAr,tselburnkc@icq.com
Barry.Chill,Barry,Chill,MnCRzK87KNAr,bchillkd@instagram.com
Natale.Checcuzzi,Natale,Checcuzzi,MnCRzK87KNAr,ncheccuzzike@over-blog.com
Hastings.Kainz,Hastings,Kainz,MnCRzK87KNAr,hkainzkf@jigsy.com
Betteanne.Woolway,Betteanne,Woolway,MnCRzK87KNAr,bwoolwaykg@prnewswire.com
Jonathan.Amar,Jonathan,Amar,MnCRzK87KNAr,jamarkh@ucoz.com
Teodorico.Tooker,Teodorico,Tooker,MnCRzK87KNAr,ttookerki@soundcloud.com
Caryn.Queripel,Caryn,Queripel,MnCRzK87KNAr,cqueripelkj@tripod.com
Gaven.Pavlata,Gaven,Pavlata,MnCRzK87KNAr,gpavlatakk@clickbank.net
Elmer.Cleverley,Elmer,Cleverley,MnCRzK87KNAr,ecleverleykl@seattletimes.com
Ashil.Larive,Ashil,Larive,MnCRzK87KNAr,alarivekm@last.fm
Lucy.Heinssen,Lucy,Heinssen,MnCRzK87KNAr,lheinssenkn@rambler.ru
Nonie.Wormleighton,Nonie,Wormleighton,MnCRzK87KNAr,nwormleightonko@hexun.com
Celle.Shelly,Celle,Shelly,MnCRzK87KNAr,cshellykp@google.co.uk
Gilda.Carden,Gilda,Carden,MnCRzK87KNAr,gcardenkq@spiegel.de
Janaye.Julian,Janaye,Julian,MnCRzK87KNAr,jjuliankr@blinklist.com
Gilberte.Tirrey,Gilberte,Tirrey,MnCRzK87KNAr,gtirreyks@blogtalkradio.com
Tobe.Eate,Tobe,Eate,MnCRzK87KNAr,teatekt@smugmug.com
Louella.McCoveney,Louella,McCoveney,MnCRzK87KNAr,lmccoveneyku@cdbaby.com
Martelle.Hedworth,Martelle,Hedworth,MnCRzK87KNAr,mhedworthkv@typepad.com
Kerrie.Tzuker,Kerrie,Tzuker,MnCRzK87KNAr,ktzukerkw@twitter.com
Prescott.Rubra,Prescott,Rubra,MnCRzK87KNAr,prubrakx@trellian.com
Sergio.Highway,Sergio,Highway,MnCRzK87KNAr,shighwayky@fema.gov
Cornie.Haggarth,Cornie,Haggarth,MnCRzK87KNAr,chaggarthkz@yale.edu
Tome.Lattos,Tome,Lattos,MnCRzK87KNAr,tlattosl0@google.fr
Bab.Sweetmore,Bab,Sweetmore,MnCRzK87KNAr,bsweetmorel1@barnesandnoble.com
Ulrica.Maffiotti,Ulrica,Maffiotti,MnCRzK87KNAr,umaffiottil2@mysql.com
Christal.Lavin,Christal,Lavin,MnCRzK87KNAr,clavinl3@soup.io
Teressa.Stefanovic,Teressa,Stefanovic,MnCRzK87KNAr,tstefanovicl4@java.com
Frasco.Beresford,Frasco,Beresford,MnCRzK87KNAr,fberesfordl5@yellowbook.com
Dominick.Pelfer,Dominick,Pelfer,MnCRzK87KNAr,dpelferl6@washington.edu
Leanna.Keel,Leanna,Keel,MnCRzK87KNAr,lkeell7@mozilla.org
Theodore.Jerson,Theodore,Jerson,MnCRzK87KNAr,tjersonl8@tripod.com
Marshal.O'Shea,Marshal,O'Shea,MnCRzK87KNAr,mosheal9@cyberchimps.com
Brendan.Whapple,Brendan,Whapple,MnCRzK87KNAr,bwhapplela@weibo.com
Enrico.Lewry,Enrico,Lewry,MnCRzK87KNAr,elewrylb@jugem.jp
Deny.Clabburn,Deny,Clabburn,MnCRzK87KNAr,dclabburnlc@godaddy.com
Saunder.Triggs,Saunder,Triggs,MnCRzK87KNAr,striggsld@oakley.com
Torre.O' Dornan,Torre,O' Dornan,MnCRzK87KNAr,todornanle@timesonline.co.uk
Cirstoforo.MacClay,Cirstoforo,MacClay,MnCRzK87KNAr,cmacclaylf@goo.ne.jp
Charissa.Bertson,Charissa,Bertson,MnCRzK87KNAr,cbertsonlg@mlb.com
Dorey.Hainey,Dorey,Hainey,MnCRzK87KNAr,dhaineylh@marketwatch.com
Cal.Berrigan,Cal,Berrigan,MnCRzK87KNAr,cberriganli@yellowpages.com
Wesley.Gregoretti,Wesley,Gregoretti,MnCRzK87KNAr,wgregorettilj@rambler.ru
Ollie.Dahle,Ollie,Dahle,MnCRzK87KNAr,odahlelk@xrea.com
Crystal.Cary,Crystal,Cary,MnCRzK87KNAr,ccaryll@si.edu
Leland.Giral,Leland,Giral,MnCRzK87KNAr,lgirallm@cargocollective.com
Andrei.Alves,Andrei,Alves,MnCRzK87KNAr,aalvesln@miitbeian.gov.cn
Sonny.Glowacki,Sonny,Glowacki,MnCRzK87KNAr,sglowackilo@trellian.com
Zebadiah.Everill,Zebadiah,Everill,MnCRzK87KNAr,zeverilllp@weibo.com
Brigitta.Smowton,Brigitta,Smowton,MnCRzK87KNAr,bsmowtonlq@discuz.net
Jesselyn.Bridgen,Jesselyn,Bridgen,MnCRzK87KNAr,jbridgenlr@newsvine.com
Jacintha.Giraudot,Jacintha,Giraudot,MnCRzK87KNAr,jgiraudotls@networkadvertising.org
Laina.Sergent,Laina,Sergent,MnCRzK87KNAr,lsergentlt@businessinsider.com
Ola.Gosnell,Ola,Gosnell,MnCRzK87KNAr,ogosnelllu@cmu.edu
Chloette.Markushkin,Chloette,Markushkin,MnCRzK87KNAr,cmarkushkinlv@goo.ne.jp
Rick.Cassedy,Rick,Cassedy,MnCRzK87KNAr,rcassedylw@cisco.com
Duky.Sangster,Duky,Sangster,MnCRzK87KNAr,dsangsterlx@privacy.gov.au
Nickolas.Ceyssen,Nickolas,Ceyssen,MnCRzK87KNAr,nceyssenly@omniture.com
Hastie.Brannigan,Hastie,Brannigan,MnCRzK87KNAr,hbranniganlz@alexa.com
Elka.Fretter,Elka,Fretter,MnCRzK87KNAr,efretterm0@csmonitor.com
Matty.Burwin,Matty,Burwin,MnCRzK87KNAr,mburwinm1@craigslist.org
Dionis.Jerg,Dionis,Jerg,MnCRzK87KNAr,djergm2@loc.gov
Burtie.Gayforth,Burtie,Gayforth,MnCRzK87KNAr,bgayforthm3@ocn.ne.jp
Nikoletta.Pirrone,Nikoletta,Pirrone,MnCRzK87KNAr,npirronem4@nps.gov
Meghann.Amesbury,Meghann,Amesbury,MnCRzK87KNAr,mamesburym5@google.de
Olivie.Fiennes,Olivie,Fiennes,MnCRzK87KNAr,ofiennesm6@sciencedaily.com
Alair.Muncaster,Alair,Muncaster,MnCRzK87KNAr,amuncasterm7@boston.com
Mair.Minor,Mair,Minor,MnCRzK87KNAr,mminorm8@google.com
Allissa.Dunwoody,Allissa,Dunwoody,MnCRzK87KNAr,adunwoodym9@typepad.com
Karita.Salle,Karita,Salle,MnCRzK87KNAr,ksallema@tripod.com
Mikkel.Cainey,Mikkel,Cainey,MnCRzK87KNAr,mcaineymb@msu.edu
Emelina.Fairbourn,Emelina,Fairbourn,MnCRzK87KNAr,efairbournmc@washingtonpost.com
Lori.Bale,Lori,Bale,MnCRzK87KNAr,lbalemd@google.com.br
Morton.Swinden,Morton,Swinden,MnCRzK87KNAr,mswindenme@discuz.net
Crystal.Bucke,Crystal,Bucke,MnCRzK87KNAr,cbuckemf@pcworld.com
Ardath.Baylis,Ardath,Baylis,MnCRzK87KNAr,abaylismg@multiply.com
Meade.Dufaire,Meade,Dufaire,MnCRzK87KNAr,mdufairemh@google.com.br
Valaree.Yarwood,Valaree,Yarwood,MnCRzK87KNAr,vyarwoodmi@ning.com
Indira.Runnicles,Indira,Runnicles,MnCRzK87KNAr,irunniclesmj@mapquest.com
Westbrook.O'Heffernan,Westbrook,O'Heffernan,MnCRzK87KNAr,woheffernanmk@networksolutions.com
Raye.Worthington,Raye,Worthington,MnCRzK87KNAr,rworthingtonml@utexas.edu
Brandy.Corton,Brandy,Corton,MnCRzK87KNAr,bcortonmm@moonfruit.com
Dulcea.Itzak,Dulcea,Itzak,MnCRzK87KNAr,ditzakmn@netvibes.com
Agustin.Dilley,Agustin,Dilley,MnCRzK87KNAr,adilleymo@123-reg.co.uk
Giralda.Nettles,Giralda,Nettles,MnCRzK87KNAr,gnettlesmp@dell.com
Rayna.Franceschi,Rayna,Franceschi,MnCRzK87KNAr,rfranceschimq@virginia.edu
Jenelle.Caldaro,Jenelle,Caldaro,MnCRzK87KNAr,jcaldaromr@ning.com
Gladi.Troth,Gladi,Troth,MnCRzK87KNAr,gtrothms@craigslist.org
Abby.Loreit,Abby,Loreit,MnCRzK87KNAr,aloreitmt@feedburner.com
Willem.Bottinelli,Willem,Bottinelli,MnCRzK87KNAr,wbottinellimu@xinhuanet.com
Sky.Berfoot,Sky,Berfoot,MnCRzK87KNAr,sberfootmv@fastcompany.com
Carmela.Segeswoeth,Carmela,Segeswoeth,MnCRzK87KNAr,csegeswoethmw@dot.gov
Averell.Juanico,Averell,Juanico,MnCRzK87KNAr,ajuanicomx@geocities.jp
Granthem.Kinner,Granthem,Kinner,MnCRzK87KNAr,gkinnermy@newsvine.com
Alfi.Dubique,Alfi,Dubique,MnCRzK87KNAr,adubiquemz@blogger.com
Bette-ann.Fussell,Bette-ann,Fussell,MnCRzK87KNAr,bfusselln0@jalbum.net
Mischa.de Clercq,Mischa,de Clercq,MnCRzK87KNAr,mdeclercqn1@mail.ru
Shari.Dochon,Shari,Dochon,MnCRzK87KNAr,sdochonn2@storify.com
Towny.Timewell,Towny,Timewell,MnCRzK87KNAr,ttimewelln3@google.ru
Tine.Fleckno,Tine,Fleckno,MnCRzK87KNAr,tflecknon4@sun.com
Gracia.Albertson,Gracia,Albertson,MnCRzK87KNAr,galbertsonn5@desdev.cn
Bernadette.Baser,Bernadette,Baser,MnCRzK87KNAr,bbasern6@uiuc.edu
Whit.McGauhy,Whit,McGauhy,MnCRzK87KNAr,wmcgauhyn7@dyndns.org
Cathi.Frandsen,Cathi,Frandsen,MnCRzK87KNAr,cfrandsenn8@tumblr.com
Reeva.Braidley,Reeva,Braidley,MnCRzK87KNAr,rbraidleyn9@weather.com
Stevana.Djurisic,Stevana,Djurisic,MnCRzK87KNAr,sdjurisicna@blinklist.com
Rudie.McCarry,Rudie,McCarry,MnCRzK87KNAr,rmccarrynb@cornell.edu
Danie.Haugh,Danie,Haugh,MnCRzK87KNAr,dhaughnc@walmart.com
Kasey.Ringe,Kasey,Ringe,MnCRzK87KNAr,kringend@businessinsider.com
Alec.Chaff,Alec,Chaff,MnCRzK87KNAr,achaffne@cargocollective.com
Eleanore.Dragoe,Eleanore,Dragoe,MnCRzK87KNAr,edragoenf@bigcartel.com
Hans.Shurrock,Hans,Shurrock,MnCRzK87KNAr,hshurrockng@bloglines.com
Courtenay.Le Marchand,Courtenay,Le Marchand,MnCRzK87KNAr,clemarchandnh@ehow.com
Berti.Stoller,Berti,Stoller,MnCRzK87KNAr,bstollerni@ehow.com
Bobby.Kemster,Bobby,Kemster,MnCRzK87KNAr,bkemsternj@europa.eu
Ferdie.Rubenov,Ferdie,Rubenov,MnCRzK87KNAr,frubenovnk@symantec.com
Margaux.Glauber,Margaux,Glauber,MnCRzK87KNAr,mglaubernl@cdbaby.com
Merrick.Menham,Merrick,Menham,MnCRzK87KNAr,mmenhamnm@ed.gov
Sabrina.Warde,Sabrina,Warde,MnCRzK87KNAr,swardenn@businessinsider.com
Sharon.Allcoat,Sharon,Allcoat,MnCRzK87KNAr,sallcoatno@mozilla.org
Dulcia.Dryden,Dulcia,Dryden,MnCRzK87KNAr,ddrydennp@hugedomains.com
Lanni.Braysher,Lanni,Braysher,MnCRzK87KNAr,lbrayshernq@uiuc.edu
Kerri.Frayling,Kerri,Frayling,MnCRzK87KNAr,kfraylingnr@livejournal.com
Debra.Robertsson,Debra,Robertsson,MnCRzK87KNAr,drobertssonns@weibo.com
Doroteya.Scarlet,Doroteya,Scarlet,MnCRzK87KNAr,dscarletnt@usa.gov
Zaria.Lepper,Zaria,Lepper,MnCRzK87KNAr,zleppernu@guardian.co.uk
Sybila.Colliber,Sybila,Colliber,MnCRzK87KNAr,scollibernv@dailymail.co.uk
Tallou.Matic,Tallou,Matic,MnCRzK87KNAr,tmaticnw@unblog.fr
Jeanna.Benzi,Jeanna,Benzi,MnCRzK87KNAr,jbenzinx@mac.com
Stephie.Frend,Stephie,Frend,MnCRzK87KNAr,sfrendny@webs.com
Dexter.Robertucci,Dexter,Robertucci,MnCRzK87KNAr,drobertuccinz@parallels.com
Fabian.Turmall,Fabian,Turmall,MnCRzK87KNAr,fturmallo0@sbwire.com
Esdras.Van De Cappelle,Esdras,Van De Cappelle,MnCRzK87KNAr,evandecappelleo1@homestead.com
Dilan.Maulin,Dilan,Maulin,MnCRzK87KNAr,dmaulino2@nyu.edu
Zara.Dallow,Zara,Dallow,MnCRzK87KNAr,zdallowo3@imgur.com
Calv.Jacques,Calv,Jacques,MnCRzK87KNAr,cjacqueso4@bing.com
Derrick.Kay,Derrick,Kay,MnCRzK87KNAr,dkayo5@forbes.com
Aleksandr.Sivil,Aleksandr,Sivil,MnCRzK87KNAr,asivilo6@diigo.com
Moyra.O' Byrne,Moyra,O' Byrne,MnCRzK87KNAr,mobyrneo7@angelfire.com
Chandal.Connechie,Chandal,Connechie,MnCRzK87KNAr,cconnechieo8@free.fr
Stacie.Jeandot,Stacie,Jeandot,MnCRzK87KNAr,sjeandoto9@comcast.net
Glennie.Lochrie,Glennie,Lochrie,MnCRzK87KNAr,glochrieoa@cdbaby.com
Cassy.Thorold,Cassy,Thorold,MnCRzK87KNAr,cthoroldob@samsung.com
Justus.Arnow,Justus,Arnow,MnCRzK87KNAr,jarnowoc@w3.org
Teodoor.Roo,Teodoor,Roo,MnCRzK87KNAr,troood@cbslocal.com
Rosalinda.Frend,Rosalinda,Frend,MnCRzK87KNAr,rfrendoe@barnesandnoble.com
Gail.Rutty,Gail,Rutty,MnCRzK87KNAr,gruttyof@sogou.com
Patti.Pharro,Patti,Pharro,MnCRzK87KNAr,ppharroog@scientificamerican.com
Dorian.Yashanov,Dorian,Yashanov,MnCRzK87KNAr,dyashanovoh@bizjournals.com
Johannah.Boays,Johannah,Boays,MnCRzK87KNAr,jboaysoi@redcross.org
Goldia.Horney,Goldia,Horney,MnCRzK87KNAr,ghorneyoj@so-net.ne.jp
Pietra.Mityushin,Pietra,Mityushin,MnCRzK87KNAr,pmityushinok@pinterest.com
Danya.Pound,Danya,Pound,MnCRzK87KNAr,dpoundol@engadget.com
Hana.Lomis,Hana,Lomis,MnCRzK87KNAr,hlomisom@utexas.edu
Linnet.Klulik,Linnet,Klulik,MnCRzK87KNAr,lklulikon@dyndns.org
Salli.Servante,Salli,Servante,MnCRzK87KNAr,sservanteoo@topsy.com
Mareah.Petegree,Mareah,Petegree,MnCRzK87KNAr,mpetegreeop@smh.com.au
Perry.Antrim,Perry,Antrim,MnCRzK87KNAr,pantrimoq@spiegel.de
Levey.Martlew,Levey,Martlew,MnCRzK87KNAr,lmartlewor@opensource.org
Joete.Master,Joete,Master,MnCRzK87KNAr,jmasteros@youtube.com
Tammi.Simonsson,Tammi,Simonsson,MnCRzK87KNAr,tsimonssonot@123-reg.co.uk
Reginauld.Thecham,Reginauld,Thecham,MnCRzK87KNAr,rthechamou@simplemachines.org
Annemarie.Taillant,Annemarie,Taillant,MnCRzK87KNAr,ataillantov@behance.net
Karrie.Killough,Karrie,Killough,MnCRzK87KNAr,kkilloughow@fastcompany.com
Rhys.Perroni,Rhys,Perroni,MnCRzK87KNAr,rperroniox@ameblo.jp
Benedetto.Pulbrook,Benedetto,Pulbrook,MnCRzK87KNAr,bpulbrookoy@ed.gov
Jessie.Wotton,Jessie,Wotton,MnCRzK87KNAr,jwottonoz@smh.com.au
Anya.Trudgian,Anya,Trudgian,MnCRzK87KNAr,atrudgianp0@gizmodo.com
Alexina.Gatward,Alexina,Gatward,MnCRzK87KNAr,agatwardp1@last.fm
Sawyer.Netti,Sawyer,Netti,MnCRzK87KNAr,snettip2@ibm.com
Doralin.Featherby,Doralin,Featherby,MnCRzK87KNAr,dfeatherbyp3@yahoo.co.jp
Trenna.Swettenham,Trenna,Swettenham,MnCRzK87KNAr,tswettenhamp4@topsy.com
Neil.Dobrovsky,Neil,Dobrovsky,MnCRzK87KNAr,ndobrovskyp5@vinaora.com
Clim.Fawkes,Clim,Fawkes,MnCRzK87KNAr,cfawkesp6@tmall.com
Rowen.Flawn,Rowen,Flawn,MnCRzK87KNAr,rflawnp7@paginegialle.it
Albert.Baldam,Albert,Baldam,MnCRzK87KNAr,abaldamp8@google.es
Susanne.Ismail,Susanne,Ismail,MnCRzK87KNAr,sismailp9@dedecms.com
Gasparo.O'Bradane,Gasparo,O'Bradane,MnCRzK87KNAr,gobradanepa@aboutads.info
Elena.Abramowsky,Elena,Abramowsky,MnCRzK87KNAr,eabramowskypb@umich.edu
Tracy.Crossman,Tracy,Crossman,MnCRzK87KNAr,tcrossmanpc@foxnews.com
Ricky.Canellas,Ricky,Canellas,MnCRzK87KNAr,rcanellaspd@google.de
Margalit.Iannini,Margalit,Iannini,MnCRzK87KNAr,mianninipe@xing.com
Guido.Lutz,Guido,Lutz,MnCRzK87KNAr,glutzpf@berkeley.edu
Meg.Challenor,Meg,Challenor,MnCRzK87KNAr,mchallenorpg@unc.edu
Cissiee.Fredy,Cissiee,Fredy,MnCRzK87KNAr,cfredyph@123-reg.co.uk
Jilli.Raymont,Jilli,Raymont,MnCRzK87KNAr,jraymontpi@twitpic.com
Blanche.Pescud,Blanche,Pescud,MnCRzK87KNAr,bpescudpj@prlog.org
Kaila.Iacopo,Kaila,Iacopo,MnCRzK87KNAr,kiacopopk@youtube.com
Wilona.Pykett,Wilona,Pykett,MnCRzK87KNAr,wpykettpl@census.gov
Grenville.Kiff,Grenville,Kiff,MnCRzK87KNAr,gkiffpm@apple.com
Pincus.Scrase,Pincus,Scrase,MnCRzK87KNAr,pscrasepn@stumbleupon.com
Bevon.Cleevely,Bevon,Cleevely,MnCRzK87KNAr,bcleevelypo@google.de
Arliene.Puden,Arliene,Puden,MnCRzK87KNAr,apudenpp@facebook.com
Luciano.Bavage,Luciano,Bavage,MnCRzK87KNAr,lbavagepq@hugedomains.com
Rickey.Batson,Rickey,Batson,MnCRzK87KNAr,rbatsonpr@free.fr
Bonnibelle.Bembridge,Bonnibelle,Bembridge,MnCRzK87KNAr,bbembridgeps@weibo.com
Amara.Le Strange,Amara,Le Strange,MnCRzK87KNAr,alestrangept@tripod.com
Florinda.Kemston,Florinda,Kemston,MnCRzK87KNAr,fkemstonpu@thetimes.co.uk
Sidonia.Size,Sidonia,Size,MnCRzK87KNAr,ssizepv@oracle.com
Consuelo.Egalton,Consuelo,Egalton,MnCRzK87KNAr,cegaltonpw@ft.com
Moyra.Kilford,Moyra,Kilford,MnCRzK87KNAr,mkilfordpx@si.edu
Tammy.Davinet,Tammy,Davinet,MnCRzK87KNAr,tdavinetpy@geocities.jp
Kiel.Ravens,Kiel,Ravens,MnCRzK87KNAr,kravenspz@samsung.com
Phoebe.Buxsey,Phoebe,Buxsey,MnCRzK87KNAr,pbuxseyq0@intel.com
Dean.Tolumello,Dean,Tolumello,MnCRzK87KNAr,dtolumelloq1@yelp.com
Kinna.Nuccii,Kinna,Nuccii,MnCRzK87KNAr,knucciiq2@dedecms.com
Kamilah.Normanvell,Kamilah,Normanvell,MnCRzK87KNAr,knormanvellq3@yandex.ru
Audy.Wybern,Audy,Wybern,MnCRzK87KNAr,awybernq4@toplist.cz
Anna-diane.Espinazo,Anna-diane,Espinazo,MnCRzK87KNAr,aespinazoq5@indiatimes.com
Kimmy.Glasser,Kimmy,Glasser,MnCRzK87KNAr,kglasserq6@simplemachines.org
Janeczka.Berney,Janeczka,Berney,MnCRzK87KNAr,jberneyq7@intel.com
Gan.Cuniffe,Gan,Cuniffe,MnCRzK87KNAr,gcuniffeq8@cmu.edu
Molli.Polotti,Molli,Polotti,MnCRzK87KNAr,mpolottiq9@discovery.com
Rik.Summerskill,Rik,Summerskill,MnCRzK87KNAr,rsummerskillqa@t-online.de
Constantia.Solman,Constantia,Solman,MnCRzK87KNAr,csolmanqb@cbc.ca
Hewie.Cole,Hewie,Cole,MnCRzK87KNAr,hcoleqc@cbc.ca
Garry.Gawen,Garry,Gawen,MnCRzK87KNAr,ggawenqd@pen.io
Carmelle.Hugk,Carmelle,Hugk,MnCRzK87KNAr,chugkqe@foxnews.com
Clementine.Korpal,Clementine,Korpal,MnCRzK87KNAr,ckorpalqf@people.com.cn
Kelley.Linsley,Kelley,Linsley,MnCRzK87KNAr,klinsleyqg@google.com.au
Cordi.Scotson,Cordi,Scotson,MnCRzK87KNAr,cscotsonqh@arstechnica.com
Hatty.Braffington,Hatty,Braffington,MnCRzK87KNAr,hbraffingtonqi@deviantart.com
Estele.Caveau,Estele,Caveau,MnCRzK87KNAr,ecaveauqj@printfriendly.com
Georgeta.Leisman,Georgeta,Leisman,MnCRzK87KNAr,gleismanqk@ibm.com
Viviana.Capehorn,Viviana,Capehorn,MnCRzK87KNAr,vcapehornql@so-net.ne.jp
Piotr.Bumpus,Piotr,Bumpus,MnCRzK87KNAr,pbumpusqm@discuz.net
Huey.Crook,Huey,Crook,MnCRzK87KNAr,hcrookqn@tripod.com
Kari.Martland,Kari,Martland,MnCRzK87KNAr,kmartlandqo@netlog.com
Benyamin.Eveleigh,Benyamin,Eveleigh,MnCRzK87KNAr,beveleighqp@intel.com
Nessie.Lafranconi,Nessie,Lafranconi,MnCRzK87KNAr,nlafranconiqq@elpais.com
Emalia.Fernez,Emalia,Fernez,MnCRzK87KNAr,efernezqr@angelfire.com
Andriana.Giovannacc@i,Andriana,Giovannacc@i,MnCRzK87KNAr,agiovannacciqs@miitbeian.gov.cn
Heloise.Salling,Heloise,Salling,MnCRzK87KNAr,hsallingqt@sitemeter.com
Hillel.Boak,Hillel,Boak,MnCRzK87KNAr,hboakqu@hao123.com
Sargent.Benit,Sargent,Benit,MnCRzK87KNAr,sbenitqv@vinaora.com
Josephina.Taveriner,Josephina,Taveriner,MnCRzK87KNAr,jtaverinerqw@1und1.de
Maurita.McQuillan,Maurita,McQuillan,MnCRzK87KNAr,mmcquillanqx@wordpress.org
Basile.Egdale,Basile,Egdale,MnCRzK87KNAr,begdaleqy@hugedomains.com
Scarface.Loreit,Scarface,Loreit,MnCRzK87KNAr,sloreitqz@mtv.com
Nicky.Hearley,Nicky,Hearley,MnCRzK87KNAr,nhearleyr0@ezinearticles.com
Margit.Curro,Margit,Curro,MnCRzK87KNAr,mcurror1@ox.ac.uk
Salli.Lackemann,Salli,Lackemann,MnCRzK87KNAr,slackemannr2@gnu.org
Demetrius.Glastonbury,Demetrius,Glastonbury,MnCRzK87KNAr,dglastonburyr3@vkontakte.ru
Jone.Kewley,Jone,Kewley,MnCRzK87KNAr,jkewleyr4@rediff.com
Stanleigh.Greenley,Stanleigh,Greenley,MnCRzK87KNAr,sgreenleyr5@msn.com
Lavinie.Leopold,Lavinie,Leopold,MnCRzK87KNAr,lleopoldr6@newsvine.com
Teodorico.Manners,Teodorico,Manners,MnCRzK87KNAr,tmannersr7@epa.gov
Angel.Kingsnode,Angel,Kingsnode,MnCRzK87KNAr,akingsnoder8@blogs.com
Lorrayne.Huckin,Lorrayne,Huckin,MnCRzK87KNAr,lhuckinr9@cdc.gov
Josee.Galway,Josee,Galway,MnCRzK87KNAr,jgalwayra@noaa.gov
Shanda.Barbisch,Shanda,Barbisch,MnCRzK87KNAr,sbarbischrb@goo.ne.jp
Bjorn.McIndoe,Bjorn,McIndoe,MnCRzK87KNAr,bmcindoerc@naver.com
Kennett.Tweed,Kennett,Tweed,MnCRzK87KNAr,ktweedrd@over-blog.com
Lindsay.Weed,Lindsay,Weed,MnCRzK87KNAr,lweedre@163.com
Oona.Carillo,Oona,Carillo,MnCRzK87KNAr,ocarillorf@barnesandnoble.com
Hilton.Ewin,Hilton,Ewin,MnCRzK87KNAr,hewinrg@slashdot.org
Johann.Delyth,Johann,Delyth,MnCRzK87KNAr,jdelythrh@whitehouse.gov
Vidovic.Voas,Vidovic,Voas,MnCRzK87KNAr,vvoasri@irs.gov
Ainsley.Glackin,Ainsley,Glackin,MnCRzK87KNAr,aglackinrj@jimdo.com
Rikki.Durn,Rikki,Durn,MnCRzK87KNAr,rdurnrk@homestead.com
Adora.Wyllt,Adora,Wyllt,MnCRzK87KNAr,awylltrl@springer.com
Rhett.Nassey,Rhett,Nassey,MnCRzK87KNAr,rnasseyrm@army.mil
Larry.Tansill,Larry,Tansill,MnCRzK87KNAr,ltansillrn@topsy.com
Mattie.Trytsman,Mattie,Trytsman,MnCRzK87KNAr,mtrytsmanro@nationalgeographic.com
Tracy.Szubert,Tracy,Szubert,MnCRzK87KNAr,tszubertrp@photobucket.com
Teena.Ambrose,Teena,Ambrose,MnCRzK87KNAr,tambroserq@cpanel.net
Rory.Revitt,Rory,Revitt,MnCRzK87KNAr,rrevittrr@wikispaces.com
